2018-04-11 09:30:45,417 offlineLogger INFO offline_sku_in_odoo.py 496 ============start processing at 2018-04-11 09:30:45============================
2018-04-11 09:31:00,784 offlineLogger INFO offline_sku_in_odoo.py 263 xy_idoo长度: 1077, yh_idoo长度: 1307, xs_idoo长度: 1684
2018-04-11 09:31:00,791 offlineLogger INFO offline_sku_in_odoo.py 272 还有库存的sku数量: 61
2018-04-11 09:31:19,574 offlineLogger INFO offline_sku_in_odoo.py 85 由于供应商还有库存不能下架的sku数量: 61
2018-04-11 09:32:08,725 offlineLogger INFO offline_sku_in_odoo.py 87 由于自己还有库存不能下架的sku数量: 15050
2018-04-11 09:32:57,513 offlineLogger INFO offline_sku_in_odoo.py 89 由于fast_on_shelf不能下架的sku数量: 6753
2018-04-11 09:33:13,176 offlineLogger INFO offline_sku_in_odoo.py 91 由于黑名单不能下架的sku数量: 0
2018-04-11 09:33:22,714 offlineLogger INFO offline_sku_in_odoo.py 93 由于各种原因不能下架的sku总数: 21864
2018-04-11 09:34:56,311 offlineLogger INFO offline_sku_in_odoo.py 471 从odoo数据库中获取到的上架cluster_id数量为: 271000
2018-04-11 09:36:20,796 offlineLogger INFO offline_sku_in_odoo.py 485 过滤后的上架sku数量为: 254991
2018-04-11 10:01:10,558 offlineLogger INFO offline_sku_in_odoo.py 503 ============start processing at 2018-04-11 10:01:10============================
2018-04-11 10:01:23,729 offlineLogger INFO offline_sku_in_odoo.py 503 ============start processing at 2018-04-11 10:01:23============================
2018-04-11 10:03:11,194 offlineLogger INFO offline_sku_in_odoo.py 505 ============start processing at 2018-04-11 10:03:11============================
2018-04-11 10:03:23,945 offlineLogger INFO offline_sku_in_odoo.py 465 从odoo数据库中获取到的上架cluster_id数量为: 2751
2018-04-11 10:03:54,125 offlineLogger INFO offline_sku_in_odoo.py 506 ============start processing at 2018-04-11 10:03:54============================
2018-04-11 10:04:16,644 offlineLogger INFO offline_sku_in_odoo.py 465 从odoo数据库中获取到的上架cluster_id数量为: 2751
2018-04-11 10:04:29,818 offlineLogger INFO offline_sku_in_odoo.py 507 ============end processing at 2018-04-11 10:04:29============================
2018-04-11 10:04:29,819 offlineLogger INFO offline_sku_in_odoo.py 509 花费时间: 186.09066820144653 秒
2018-04-11 10:06:30,926 offlineLogger INFO offline_sku_in_odoo.py 506 ============start processing at 2018-04-11 10:06:30============================
2018-04-11 10:06:34,638 offlineLogger INFO offline_sku_in_odoo.py 465 从odoo数据库中获取到的上架cluster_id数量为: 2750
2018-04-11 10:07:28,174 offlineLogger INFO offline_sku_in_odoo.py 506 ============start processing at 2018-04-11 10:07:28============================
2018-04-11 10:07:31,442 offlineLogger INFO offline_sku_in_odoo.py 465 从odoo数据库中获取到的上架cluster_id数量为: 2750
2018-04-11 10:22:55,004 offlineLogger INFO offline_sku_in_odoo.py 507 ============start processing at 2018-04-11 10:22:55============================
2018-04-11 10:23:22,513 offlineLogger INFO offline_sku_in_odoo.py 507 ============start processing at 2018-04-11 10:23:22============================
2018-04-11 10:23:36,470 offlineLogger INFO offline_sku_in_odoo.py 264 xy_idoo长度: 1084, yh_idoo长度: 1308, xs_idoo长度: 1689
2018-04-11 10:23:36,479 offlineLogger INFO offline_sku_in_odoo.py 273 还有库存的sku数量: 61
2018-04-11 10:23:41,177 offlineLogger INFO offline_sku_in_odoo.py 86 由于供应商还有库存不能下架的sku数量: 61
2018-04-11 10:24:12,282 offlineLogger INFO offline_sku_in_odoo.py 88 由于自己还有库存不能下架的sku数量: 15050
2018-04-11 10:24:19,611 offlineLogger INFO offline_sku_in_odoo.py 90 由于fast_on_shelf不能下架的sku数量: 6747
2018-04-11 10:24:24,124 offlineLogger INFO offline_sku_in_odoo.py 92 由于黑名单不能下架的sku数量: 0
2018-04-11 10:24:24,126 offlineLogger INFO offline_sku_in_odoo.py 94 由于各种原因不能下架的sku总数: 21858
2018-04-11 10:27:42,379 offlineLogger INFO offline_sku_in_odoo.py 480 从odoo数据库中获取到的上架cluster_id数量为: 271072
2018-04-11 10:28:50,234 offlineLogger INFO offline_sku_in_odoo.py 494 过滤后的上架cluster_id数量为: 255063
2018-04-11 10:30:05,108 offlineLogger INFO offline_sku_in_odoo.py 422 需要获取132次由于供应商问题需要下架的sku数量
2018-04-11 10:31:42,687 offlineLogger INFO offline_sku_in_odoo.py 445 第0次获取由于供应商问题需要下架的sku数量: 292
2018-04-11 10:32:34,853 offlineLogger INFO offline_sku_in_odoo.py 445 第1次获取由于供应商问题需要下架的sku数量: 122
2018-04-11 10:32:55,350 offlineLogger INFO offline_sku_in_odoo.py 445 第2次获取由于供应商问题需要下架的sku数量: 235
2018-04-11 10:33:22,188 offlineLogger INFO offline_sku_in_odoo.py 445 第3次获取由于供应商问题需要下架的sku数量: 292
2018-04-11 10:33:44,303 offlineLogger INFO offline_sku_in_odoo.py 445 第4次获取由于供应商问题需要下架的sku数量: 321
2018-04-11 10:33:59,965 offlineLogger INFO offline_sku_in_odoo.py 445 第5次获取由于供应商问题需要下架的sku数量: 371
2018-04-11 10:34:17,682 offlineLogger INFO offline_sku_in_odoo.py 445 第6次获取由于供应商问题需要下架的sku数量: 392
2018-04-11 10:34:30,699 offlineLogger INFO offline_sku_in_odoo.py 445 第7次获取由于供应商问题需要下架的sku数量: 352
2018-04-11 10:34:43,275 offlineLogger INFO offline_sku_in_odoo.py 445 第8次获取由于供应商问题需要下架的sku数量: 347
2018-04-11 10:34:53,632 offlineLogger INFO offline_sku_in_odoo.py 445 第9次获取由于供应商问题需要下架的sku数量: 470
2018-04-11 10:35:03,268 offlineLogger INFO offline_sku_in_odoo.py 445 第10次获取由于供应商问题需要下架的sku数量: 476
2018-04-11 10:35:12,905 offlineLogger INFO offline_sku_in_odoo.py 445 第11次获取由于供应商问题需要下架的sku数量: 693
2018-04-11 10:35:20,972 offlineLogger INFO offline_sku_in_odoo.py 445 第12次获取由于供应商问题需要下架的sku数量: 408
2018-04-11 10:35:28,957 offlineLogger INFO offline_sku_in_odoo.py 445 第13次获取由于供应商问题需要下架的sku数量: 415
2018-04-11 10:35:38,484 offlineLogger INFO offline_sku_in_odoo.py 445 第14次获取由于供应商问题需要下架的sku数量: 340
2018-04-11 10:35:47,481 offlineLogger INFO offline_sku_in_odoo.py 445 第15次获取由于供应商问题需要下架的sku数量: 339
2018-04-11 10:35:56,992 offlineLogger INFO offline_sku_in_odoo.py 445 第16次获取由于供应商问题需要下架的sku数量: 387
2018-04-11 10:36:04,933 offlineLogger INFO offline_sku_in_odoo.py 445 第17次获取由于供应商问题需要下架的sku数量: 362
2018-04-11 10:36:11,344 offlineLogger INFO offline_sku_in_odoo.py 445 第18次获取由于供应商问题需要下架的sku数量: 413
2018-04-11 10:36:18,907 offlineLogger INFO offline_sku_in_odoo.py 445 第19次获取由于供应商问题需要下架的sku数量: 418
2018-04-11 10:36:27,430 offlineLogger INFO offline_sku_in_odoo.py 445 第20次获取由于供应商问题需要下架的sku数量: 410
2018-04-11 10:36:37,721 offlineLogger INFO offline_sku_in_odoo.py 445 第21次获取由于供应商问题需要下架的sku数量: 565
2018-04-11 10:36:44,669 offlineLogger INFO offline_sku_in_odoo.py 445 第22次获取由于供应商问题需要下架的sku数量: 588
2018-04-11 10:36:53,110 offlineLogger INFO offline_sku_in_odoo.py 445 第23次获取由于供应商问题需要下架的sku数量: 458
2018-04-11 10:37:00,774 offlineLogger INFO offline_sku_in_odoo.py 445 第24次获取由于供应商问题需要下架的sku数量: 452
2018-04-11 10:37:09,974 offlineLogger INFO offline_sku_in_odoo.py 445 第25次获取由于供应商问题需要下架的sku数量: 500
2018-04-11 10:37:16,623 offlineLogger INFO offline_sku_in_odoo.py 445 第26次获取由于供应商问题需要下架的sku数量: 433
2018-04-11 10:37:22,758 offlineLogger INFO offline_sku_in_odoo.py 445 第27次获取由于供应商问题需要下架的sku数量: 437
2018-04-11 10:37:29,785 offlineLogger INFO offline_sku_in_odoo.py 445 第28次获取由于供应商问题需要下架的sku数量: 628
2018-04-11 10:37:36,511 offlineLogger INFO offline_sku_in_odoo.py 445 第29次获取由于供应商问题需要下架的sku数量: 583
2018-04-11 10:37:43,165 offlineLogger INFO offline_sku_in_odoo.py 445 第30次获取由于供应商问题需要下架的sku数量: 569
2018-04-11 10:37:49,197 offlineLogger INFO offline_sku_in_odoo.py 445 第31次获取由于供应商问题需要下架的sku数量: 572
2018-04-11 10:37:55,332 offlineLogger INFO offline_sku_in_odoo.py 445 第32次获取由于供应商问题需要下架的sku数量: 519
2018-04-11 10:38:01,408 offlineLogger INFO offline_sku_in_odoo.py 445 第33次获取由于供应商问题需要下架的sku数量: 595
2018-04-11 10:38:06,948 offlineLogger INFO offline_sku_in_odoo.py 445 第34次获取由于供应商问题需要下架的sku数量: 622
2018-04-11 10:38:13,747 offlineLogger INFO offline_sku_in_odoo.py 445 第35次获取由于供应商问题需要下架的sku数量: 776
2018-04-11 10:38:19,978 offlineLogger INFO offline_sku_in_odoo.py 445 第36次获取由于供应商问题需要下架的sku数量: 615
2018-04-11 10:38:25,860 offlineLogger INFO offline_sku_in_odoo.py 445 第37次获取由于供应商问题需要下架的sku数量: 677
2018-04-11 10:38:31,311 offlineLogger INFO offline_sku_in_odoo.py 445 第38次获取由于供应商问题需要下架的sku数量: 535
2018-04-11 10:38:38,266 offlineLogger INFO offline_sku_in_odoo.py 445 第39次获取由于供应商问题需要下架的sku数量: 567
2018-04-11 10:38:44,309 offlineLogger INFO offline_sku_in_odoo.py 445 第40次获取由于供应商问题需要下架的sku数量: 632
2018-04-11 10:38:51,650 offlineLogger INFO offline_sku_in_odoo.py 445 第41次获取由于供应商问题需要下架的sku数量: 773
2018-04-11 10:38:57,671 offlineLogger INFO offline_sku_in_odoo.py 445 第42次获取由于供应商问题需要下架的sku数量: 564
2018-04-11 10:39:03,656 offlineLogger INFO offline_sku_in_odoo.py 445 第43次获取由于供应商问题需要下架的sku数量: 539
2018-04-11 10:39:09,151 offlineLogger INFO offline_sku_in_odoo.py 445 第44次获取由于供应商问题需要下架的sku数量: 619
2018-04-11 10:39:15,023 offlineLogger INFO offline_sku_in_odoo.py 445 第45次获取由于供应商问题需要下架的sku数量: 608
2018-04-11 10:39:22,211 offlineLogger INFO offline_sku_in_odoo.py 445 第46次获取由于供应商问题需要下架的sku数量: 661
2018-04-11 10:39:28,548 offlineLogger INFO offline_sku_in_odoo.py 445 第47次获取由于供应商问题需要下架的sku数量: 772
2018-04-11 10:39:34,593 offlineLogger INFO offline_sku_in_odoo.py 445 第48次获取由于供应商问题需要下架的sku数量: 529
2018-04-11 10:39:40,924 offlineLogger INFO offline_sku_in_odoo.py 445 第49次获取由于供应商问题需要下架的sku数量: 715
2018-04-11 10:39:46,930 offlineLogger INFO offline_sku_in_odoo.py 445 第50次获取由于供应商问题需要下架的sku数量: 527
2018-04-11 10:39:51,883 offlineLogger INFO offline_sku_in_odoo.py 445 第51次获取由于供应商问题需要下架的sku数量: 516
2018-04-11 10:39:57,033 offlineLogger INFO offline_sku_in_odoo.py 445 第52次获取由于供应商问题需要下架的sku数量: 742
2018-04-11 10:40:02,615 offlineLogger INFO offline_sku_in_odoo.py 445 第53次获取由于供应商问题需要下架的sku数量: 461
2018-04-11 10:40:07,260 offlineLogger INFO offline_sku_in_odoo.py 445 第54次获取由于供应商问题需要下架的sku数量: 629
2018-04-11 10:40:10,577 offlineLogger INFO offline_sku_in_odoo.py 445 第55次获取由于供应商问题需要下架的sku数量: 224
2018-04-11 10:40:15,016 offlineLogger INFO offline_sku_in_odoo.py 445 第56次获取由于供应商问题需要下架的sku数量: 504
2018-04-11 10:40:20,371 offlineLogger INFO offline_sku_in_odoo.py 445 第57次获取由于供应商问题需要下架的sku数量: 705
2018-04-11 10:40:24,908 offlineLogger INFO offline_sku_in_odoo.py 445 第58次获取由于供应商问题需要下架的sku数量: 397
2018-04-11 10:40:28,822 offlineLogger INFO offline_sku_in_odoo.py 445 第59次获取由于供应商问题需要下架的sku数量: 327
2018-04-11 10:40:32,294 offlineLogger INFO offline_sku_in_odoo.py 445 第60次获取由于供应商问题需要下架的sku数量: 318
2018-04-11 10:40:35,594 offlineLogger INFO offline_sku_in_odoo.py 445 第61次获取由于供应商问题需要下架的sku数量: 232
2018-04-11 10:40:38,628 offlineLogger INFO offline_sku_in_odoo.py 445 第62次获取由于供应商问题需要下架的sku数量: 400
2018-04-11 10:40:41,378 offlineLogger INFO offline_sku_in_odoo.py 445 第63次获取由于供应商问题需要下架的sku数量: 372
2018-04-11 10:40:44,382 offlineLogger INFO offline_sku_in_odoo.py 445 第64次获取由于供应商问题需要下架的sku数量: 399
2018-04-11 10:40:47,635 offlineLogger INFO offline_sku_in_odoo.py 445 第65次获取由于供应商问题需要下架的sku数量: 394
2018-04-11 10:40:51,043 offlineLogger INFO offline_sku_in_odoo.py 445 第66次获取由于供应商问题需要下架的sku数量: 407
2018-04-11 10:40:54,653 offlineLogger INFO offline_sku_in_odoo.py 445 第67次获取由于供应商问题需要下架的sku数量: 343
2018-04-11 10:40:57,981 offlineLogger INFO offline_sku_in_odoo.py 445 第68次获取由于供应商问题需要下架的sku数量: 312
2018-04-11 10:41:01,009 offlineLogger INFO offline_sku_in_odoo.py 445 第69次获取由于供应商问题需要下架的sku数量: 421
2018-04-11 10:41:04,045 offlineLogger INFO offline_sku_in_odoo.py 445 第70次获取由于供应商问题需要下架的sku数量: 347
2018-04-11 10:41:07,010 offlineLogger INFO offline_sku_in_odoo.py 445 第71次获取由于供应商问题需要下架的sku数量: 340
2018-04-11 10:41:10,468 offlineLogger INFO offline_sku_in_odoo.py 445 第72次获取由于供应商问题需要下架的sku数量: 310
2018-04-11 10:41:14,613 offlineLogger INFO offline_sku_in_odoo.py 445 第73次获取由于供应商问题需要下架的sku数量: 271
2018-04-11 10:41:18,572 offlineLogger INFO offline_sku_in_odoo.py 445 第74次获取由于供应商问题需要下架的sku数量: 248
2018-04-11 10:41:22,261 offlineLogger INFO offline_sku_in_odoo.py 445 第75次获取由于供应商问题需要下架的sku数量: 253
2018-04-11 10:41:26,878 offlineLogger INFO offline_sku_in_odoo.py 445 第76次获取由于供应商问题需要下架的sku数量: 325
2018-04-11 10:41:31,162 offlineLogger INFO offline_sku_in_odoo.py 445 第77次获取由于供应商问题需要下架的sku数量: 291
2018-04-11 10:41:34,916 offlineLogger INFO offline_sku_in_odoo.py 445 第78次获取由于供应商问题需要下架的sku数量: 385
2018-04-11 10:41:38,986 offlineLogger INFO offline_sku_in_odoo.py 445 第79次获取由于供应商问题需要下架的sku数量: 213
2018-04-11 10:41:43,184 offlineLogger INFO offline_sku_in_odoo.py 445 第80次获取由于供应商问题需要下架的sku数量: 323
2018-04-11 10:41:47,334 offlineLogger INFO offline_sku_in_odoo.py 445 第81次获取由于供应商问题需要下架的sku数量: 130
2018-04-11 10:41:50,915 offlineLogger INFO offline_sku_in_odoo.py 445 第82次获取由于供应商问题需要下架的sku数量: 115
2018-04-11 10:41:54,310 offlineLogger INFO offline_sku_in_odoo.py 445 第83次获取由于供应商问题需要下架的sku数量: 324
2018-04-11 10:41:57,494 offlineLogger INFO offline_sku_in_odoo.py 445 第84次获取由于供应商问题需要下架的sku数量: 294
2018-04-11 10:42:00,995 offlineLogger INFO offline_sku_in_odoo.py 445 第85次获取由于供应商问题需要下架的sku数量: 242
2018-04-11 10:42:04,679 offlineLogger INFO offline_sku_in_odoo.py 445 第86次获取由于供应商问题需要下架的sku数量: 247
2018-04-11 10:42:07,757 offlineLogger INFO offline_sku_in_odoo.py 445 第87次获取由于供应商问题需要下架的sku数量: 386
2018-04-11 10:42:11,865 offlineLogger INFO offline_sku_in_odoo.py 445 第88次获取由于供应商问题需要下架的sku数量: 473
2018-04-11 10:42:15,344 offlineLogger INFO offline_sku_in_odoo.py 445 第89次获取由于供应商问题需要下架的sku数量: 278
2018-04-11 10:42:17,697 offlineLogger INFO offline_sku_in_odoo.py 445 第90次获取由于供应商问题需要下架的sku数量: 460
2018-04-11 10:42:20,343 offlineLogger INFO offline_sku_in_odoo.py 445 第91次获取由于供应商问题需要下架的sku数量: 390
2018-04-11 10:42:23,930 offlineLogger INFO offline_sku_in_odoo.py 445 第92次获取由于供应商问题需要下架的sku数量: 413
2018-04-11 10:42:26,742 offlineLogger INFO offline_sku_in_odoo.py 445 第93次获取由于供应商问题需要下架的sku数量: 260
2018-04-11 10:42:29,536 offlineLogger INFO offline_sku_in_odoo.py 445 第94次获取由于供应商问题需要下架的sku数量: 247
2018-04-11 10:42:32,086 offlineLogger INFO offline_sku_in_odoo.py 445 第95次获取由于供应商问题需要下架的sku数量: 311
2018-04-11 10:42:34,467 offlineLogger INFO offline_sku_in_odoo.py 445 第96次获取由于供应商问题需要下架的sku数量: 430
2018-04-11 10:42:37,863 offlineLogger INFO offline_sku_in_odoo.py 445 第97次获取由于供应商问题需要下架的sku数量: 389
2018-04-11 10:42:40,111 offlineLogger INFO offline_sku_in_odoo.py 445 第98次获取由于供应商问题需要下架的sku数量: 360
2018-04-11 10:42:42,307 offlineLogger INFO offline_sku_in_odoo.py 445 第99次获取由于供应商问题需要下架的sku数量: 402
2018-04-11 10:42:44,749 offlineLogger INFO offline_sku_in_odoo.py 445 第100次获取由于供应商问题需要下架的sku数量: 389
2018-04-11 10:42:47,257 offlineLogger INFO offline_sku_in_odoo.py 445 第101次获取由于供应商问题需要下架的sku数量: 300
2018-04-11 10:42:49,915 offlineLogger INFO offline_sku_in_odoo.py 445 第102次获取由于供应商问题需要下架的sku数量: 199
2018-04-11 10:42:52,280 offlineLogger INFO offline_sku_in_odoo.py 445 第103次获取由于供应商问题需要下架的sku数量: 460
2018-04-11 10:42:54,463 offlineLogger INFO offline_sku_in_odoo.py 445 第104次获取由于供应商问题需要下架的sku数量: 461
2018-04-11 10:42:57,031 offlineLogger INFO offline_sku_in_odoo.py 445 第105次获取由于供应商问题需要下架的sku数量: 425
2018-04-11 10:42:59,578 offlineLogger INFO offline_sku_in_odoo.py 445 第106次获取由于供应商问题需要下架的sku数量: 377
2018-04-11 10:43:01,913 offlineLogger INFO offline_sku_in_odoo.py 445 第107次获取由于供应商问题需要下架的sku数量: 342
2018-04-11 10:43:04,057 offlineLogger INFO offline_sku_in_odoo.py 445 第108次获取由于供应商问题需要下架的sku数量: 334
2018-04-11 10:43:06,302 offlineLogger INFO offline_sku_in_odoo.py 445 第109次获取由于供应商问题需要下架的sku数量: 290
2018-04-11 10:43:08,660 offlineLogger INFO offline_sku_in_odoo.py 445 第110次获取由于供应商问题需要下架的sku数量: 331
2018-04-11 10:43:10,957 offlineLogger INFO offline_sku_in_odoo.py 445 第111次获取由于供应商问题需要下架的sku数量: 563
2018-04-11 10:43:13,195 offlineLogger INFO offline_sku_in_odoo.py 445 第112次获取由于供应商问题需要下架的sku数量: 622
2018-04-11 10:43:15,632 offlineLogger INFO offline_sku_in_odoo.py 445 第113次获取由于供应商问题需要下架的sku数量: 424
2018-04-11 10:43:18,109 offlineLogger INFO offline_sku_in_odoo.py 445 第114次获取由于供应商问题需要下架的sku数量: 538
2018-04-11 10:43:20,361 offlineLogger INFO offline_sku_in_odoo.py 445 第115次获取由于供应商问题需要下架的sku数量: 413
2018-04-11 10:43:22,477 offlineLogger INFO offline_sku_in_odoo.py 445 第116次获取由于供应商问题需要下架的sku数量: 253
2018-04-11 10:43:24,539 offlineLogger INFO offline_sku_in_odoo.py 445 第117次获取由于供应商问题需要下架的sku数量: 373
2018-04-11 10:43:26,644 offlineLogger INFO offline_sku_in_odoo.py 445 第118次获取由于供应商问题需要下架的sku数量: 306
2018-04-11 10:43:29,046 offlineLogger INFO offline_sku_in_odoo.py 445 第119次获取由于供应商问题需要下架的sku数量: 404
2018-04-11 10:43:31,382 offlineLogger INFO offline_sku_in_odoo.py 445 第120次获取由于供应商问题需要下架的sku数量: 213
2018-04-11 10:43:33,975 offlineLogger INFO offline_sku_in_odoo.py 445 第121次获取由于供应商问题需要下架的sku数量: 533
2018-04-11 10:43:36,395 offlineLogger INFO offline_sku_in_odoo.py 445 第122次获取由于供应商问题需要下架的sku数量: 742
2018-04-11 10:43:38,459 offlineLogger INFO offline_sku_in_odoo.py 445 第123次获取由于供应商问题需要下架的sku数量: 648
2018-04-11 10:43:40,332 offlineLogger INFO offline_sku_in_odoo.py 445 第124次获取由于供应商问题需要下架的sku数量: 624
2018-04-11 10:43:42,075 offlineLogger INFO offline_sku_in_odoo.py 445 第125次获取由于供应商问题需要下架的sku数量: 699
2018-04-11 10:43:43,783 offlineLogger INFO offline_sku_in_odoo.py 445 第126次获取由于供应商问题需要下架的sku数量: 783
2018-04-11 10:43:45,567 offlineLogger INFO offline_sku_in_odoo.py 445 第127次获取由于供应商问题需要下架的sku数量: 740
2018-04-11 10:43:47,814 offlineLogger INFO offline_sku_in_odoo.py 445 第128次获取由于供应商问题需要下架的sku数量: 507
2018-04-11 10:43:49,802 offlineLogger INFO offline_sku_in_odoo.py 445 第129次获取由于供应商问题需要下架的sku数量: 953
2018-04-11 10:43:51,709 offlineLogger INFO offline_sku_in_odoo.py 445 第130次获取由于供应商问题需要下架的sku数量: 1129
2018-04-11 10:43:55,223 offlineLogger INFO offline_sku_in_odoo.py 445 第131次获取由于供应商问题需要下架的sku数量: 799
2018-04-11 10:44:40,196 offlineLogger INFO offline_sku_in_odoo.py 397 所有线上商品的cluster_id数量为: 270974
2018-04-11 10:50:55,711 offlineLogger INFO offline_sku_in_odoo.py 399 需要merged的cluster_id数量为: 16001
2018-04-11 11:07:20,636 offlineLogger INFO offline_sku_in_odoo.py 508 ============start processing at 2018-04-11 11:07:20============================
2018-04-11 11:07:27,763 offlineLogger INFO offline_sku_in_odoo.py 264 xy_idoo长度: 1086, yh_idoo长度: 1308, xs_idoo长度: 1692
2018-04-11 11:07:27,764 offlineLogger INFO offline_sku_in_odoo.py 273 还有库存的sku数量: 61
2018-04-11 11:07:27,764 offlineLogger INFO offline_sku_in_odoo.py 86 由于供应商还有库存不能下架的sku数量: 61
2018-04-11 11:07:49,145 offlineLogger INFO offline_sku_in_odoo.py 88 由于自己还有库存不能下架的sku数量: 15050
2018-04-11 11:07:52,030 offlineLogger INFO offline_sku_in_odoo.py 90 由于fast_on_shelf不能下架的sku数量: 6736
2018-04-11 11:07:52,080 offlineLogger INFO offline_sku_in_odoo.py 92 由于黑名单不能下架的sku数量: 0
2018-04-11 11:07:52,081 offlineLogger INFO offline_sku_in_odoo.py 94 由于各种原因不能下架的sku总数: 21847
2018-04-11 11:13:27,231 offlineLogger INFO offline_sku_in_odoo.py 397 所有线上商品的cluster_id数量为: 271009
2018-04-11 11:21:26,966 offlineLogger INFO offline_sku_in_odoo.py 399 需要merged的cluster_id数量为: 16010
2018-04-11 13:11:53,521 offlineLogger INFO offline_sku_in_odoo.py 541 ============start processing at 2018-04-11 13:11:53============================
2018-04-11 13:11:58,447 offlineLogger INFO offline_sku_in_odoo.py 541 ============start processing at 2018-04-11 13:11:58============================
2018-04-11 13:12:02,821 offlineLogger INFO offline_sku_in_odoo.py 266 xy_idoo长度: 1090, yh_idoo长度: 1306, xs_idoo长度: 1695
2018-04-11 13:12:02,826 offlineLogger INFO offline_sku_in_odoo.py 275 还有库存的sku数量: 62
2018-04-11 13:12:02,826 offlineLogger INFO offline_sku_in_odoo.py 86 由于供应商还有库存不能下架的sku数量: 62
2018-04-11 13:12:19,555 offlineLogger INFO offline_sku_in_odoo.py 88 由于自己还有库存不能下架的sku数量: 15050
2018-04-11 13:12:21,664 offlineLogger INFO offline_sku_in_odoo.py 90 由于fast_on_shelf不能下架的sku数量: 6723
2018-04-11 13:12:21,688 offlineLogger INFO offline_sku_in_odoo.py 92 由于黑名单不能下架的sku数量: 0
2018-04-11 13:12:21,689 offlineLogger INFO offline_sku_in_odoo.py 94 由于各种原因不能下架的sku总数: 21835
2018-04-11 13:20:37,703 offlineLogger INFO offline_sku_in_odoo.py 541 ============start processing at 2018-04-11 13:20:37============================
2018-04-11 13:20:43,997 offlineLogger INFO offline_sku_in_odoo.py 266 xy_idoo长度: 1090, yh_idoo长度: 1304, xs_idoo长度: 1696
2018-04-11 13:20:43,998 offlineLogger INFO offline_sku_in_odoo.py 275 还有库存的sku数量: 62
2018-04-11 13:20:43,998 offlineLogger INFO offline_sku_in_odoo.py 86 由于供应商还有库存不能下架的sku数量: 62
2018-04-11 13:21:00,757 offlineLogger INFO offline_sku_in_odoo.py 88 由于自己还有库存不能下架的sku数量: 15050
2018-04-11 13:21:02,719 offlineLogger INFO offline_sku_in_odoo.py 90 由于fast_on_shelf不能下架的sku数量: 6723
2018-04-11 13:21:02,763 offlineLogger INFO offline_sku_in_odoo.py 92 由于黑名单不能下架的sku数量: 0
2018-04-11 13:21:02,764 offlineLogger INFO offline_sku_in_odoo.py 94 由于以上全部原因不能下架的sku总数: 21835
2018-04-11 14:01:52,244 offlineLogger INFO offline_sku_in_odoo.py 575 ============start processing at 2018-04-11 14:01:52============================
2018-04-11 14:01:57,362 offlineLogger INFO offline_sku_in_odoo.py 266 xy_idoo长度: 1091, yh_idoo长度: 1304, xs_idoo长度: 1701
2018-04-11 14:01:57,363 offlineLogger INFO offline_sku_in_odoo.py 275 还有库存的sku数量: 62
2018-04-11 14:01:57,364 offlineLogger INFO offline_sku_in_odoo.py 86 由于供应商还有库存不能下架的sku数量: 62
2018-04-11 14:02:11,573 offlineLogger INFO offline_sku_in_odoo.py 88 由于自己还有库存不能下架的sku数量: 15050
2018-04-11 14:02:13,552 offlineLogger INFO offline_sku_in_odoo.py 90 由于fast_on_shelf不能下架的sku数量: 6723
2018-04-11 14:02:13,591 offlineLogger INFO offline_sku_in_odoo.py 92 由于黑名单不能下架的sku数量: 0
2018-04-11 14:02:13,591 offlineLogger INFO offline_sku_in_odoo.py 94 由于以上全部原因不能下架的sku总数: 21835
2018-04-11 14:07:39,475 offlineLogger INFO offline_sku_in_odoo.py 435 过滤后的上架sku数量为: 1320299
2018-04-11 14:07:51,223 offlineLogger INFO offline_sku_in_odoo.py 441 需要获取133次由于供应商问题需要下架的sku数量
2018-04-11 14:08:06,826 offlineLogger INFO offline_sku_in_odoo.py 479 第0次获取由于供应商问题需要下架的sku数量: 617
2018-04-11 14:08:48,093 offlineLogger INFO offline_sku_in_odoo.py 479 第1次获取由于供应商问题需要下架的sku数量: 719
2018-04-11 14:08:53,552 offlineLogger INFO offline_sku_in_odoo.py 479 第2次获取由于供应商问题需要下架的sku数量: 1023
2018-04-11 14:09:00,071 offlineLogger INFO offline_sku_in_odoo.py 479 第3次获取由于供应商问题需要下架的sku数量: 771
2018-04-11 14:09:06,107 offlineLogger INFO offline_sku_in_odoo.py 479 第4次获取由于供应商问题需要下架的sku数量: 746
2018-04-11 14:09:10,383 offlineLogger INFO offline_sku_in_odoo.py 479 第5次获取由于供应商问题需要下架的sku数量: 505
2018-04-11 14:09:17,241 offlineLogger INFO offline_sku_in_odoo.py 479 第6次获取由于供应商问题需要下架的sku数量: 493
2018-04-11 14:09:21,135 offlineLogger INFO offline_sku_in_odoo.py 479 第7次获取由于供应商问题需要下架的sku数量: 490
2018-04-11 14:09:22,882 offlineLogger INFO offline_sku_in_odoo.py 479 第8次获取由于供应商问题需要下架的sku数量: 413
2018-04-11 14:09:31,459 offlineLogger INFO offline_sku_in_odoo.py 479 第9次获取由于供应商问题需要下架的sku数量: 513
2018-04-11 14:09:41,950 offlineLogger INFO offline_sku_in_odoo.py 479 第10次获取由于供应商问题需要下架的sku数量: 342
2018-04-11 14:09:48,665 offlineLogger INFO offline_sku_in_odoo.py 479 第11次获取由于供应商问题需要下架的sku数量: 276
2018-04-11 14:09:56,993 offlineLogger INFO offline_sku_in_odoo.py 479 第12次获取由于供应商问题需要下架的sku数量: 542
2018-04-11 14:10:02,618 offlineLogger INFO offline_sku_in_odoo.py 479 第13次获取由于供应商问题需要下架的sku数量: 185
2018-04-11 14:10:11,558 offlineLogger INFO offline_sku_in_odoo.py 479 第14次获取由于供应商问题需要下架的sku数量: 278
2018-04-11 14:10:18,277 offlineLogger INFO offline_sku_in_odoo.py 479 第15次获取由于供应商问题需要下架的sku数量: 447
2018-04-11 14:10:25,095 offlineLogger INFO offline_sku_in_odoo.py 479 第16次获取由于供应商问题需要下架的sku数量: 451
2018-04-11 14:10:31,093 offlineLogger INFO offline_sku_in_odoo.py 479 第17次获取由于供应商问题需要下架的sku数量: 393
2018-04-11 14:10:36,589 offlineLogger INFO offline_sku_in_odoo.py 479 第18次获取由于供应商问题需要下架的sku数量: 377
2018-04-11 14:10:41,925 offlineLogger INFO offline_sku_in_odoo.py 479 第19次获取由于供应商问题需要下架的sku数量: 442
2018-04-11 14:10:46,928 offlineLogger INFO offline_sku_in_odoo.py 479 第20次获取由于供应商问题需要下架的sku数量: 319
2018-04-11 14:10:50,371 offlineLogger INFO offline_sku_in_odoo.py 479 第21次获取由于供应商问题需要下架的sku数量: 468
2018-04-11 14:10:53,476 offlineLogger INFO offline_sku_in_odoo.py 479 第22次获取由于供应商问题需要下架的sku数量: 285
2018-04-11 14:10:55,524 offlineLogger INFO offline_sku_in_odoo.py 479 第23次获取由于供应商问题需要下架的sku数量: 496
2018-04-11 14:10:58,199 offlineLogger INFO offline_sku_in_odoo.py 479 第24次获取由于供应商问题需要下架的sku数量: 380
2018-04-11 14:11:01,781 offlineLogger INFO offline_sku_in_odoo.py 479 第25次获取由于供应商问题需要下架的sku数量: 389
2018-04-11 14:11:07,808 offlineLogger INFO offline_sku_in_odoo.py 479 第26次获取由于供应商问题需要下架的sku数量: 225
2018-04-11 14:11:14,112 offlineLogger INFO offline_sku_in_odoo.py 479 第27次获取由于供应商问题需要下架的sku数量: 354
2018-04-11 14:11:25,123 offlineLogger INFO offline_sku_in_odoo.py 479 第28次获取由于供应商问题需要下架的sku数量: 292
2018-04-11 14:11:32,796 offlineLogger INFO offline_sku_in_odoo.py 479 第29次获取由于供应商问题需要下架的sku数量: 317
2018-04-11 14:11:41,234 offlineLogger INFO offline_sku_in_odoo.py 479 第30次获取由于供应商问题需要下架的sku数量: 728
2018-04-11 14:11:49,829 offlineLogger INFO offline_sku_in_odoo.py 479 第31次获取由于供应商问题需要下架的sku数量: 618
2018-04-11 14:11:59,312 offlineLogger INFO offline_sku_in_odoo.py 479 第32次获取由于供应商问题需要下架的sku数量: 547
2018-04-11 14:12:03,837 offlineLogger INFO offline_sku_in_odoo.py 479 第33次获取由于供应商问题需要下架的sku数量: 869
2018-04-11 14:12:07,327 offlineLogger INFO offline_sku_in_odoo.py 479 第34次获取由于供应商问题需要下架的sku数量: 598
2018-04-11 14:12:12,080 offlineLogger INFO offline_sku_in_odoo.py 479 第35次获取由于供应商问题需要下架的sku数量: 792
2018-04-11 14:12:16,313 offlineLogger INFO offline_sku_in_odoo.py 479 第36次获取由于供应商问题需要下架的sku数量: 550
2018-04-11 14:12:20,071 offlineLogger INFO offline_sku_in_odoo.py 479 第37次获取由于供应商问题需要下架的sku数量: 675
2018-04-11 14:12:22,944 offlineLogger INFO offline_sku_in_odoo.py 479 第38次获取由于供应商问题需要下架的sku数量: 550
2018-04-11 14:12:28,957 offlineLogger INFO offline_sku_in_odoo.py 479 第39次获取由于供应商问题需要下架的sku数量: 458
2018-04-11 14:12:32,263 offlineLogger INFO offline_sku_in_odoo.py 479 第40次获取由于供应商问题需要下架的sku数量: 396
2018-04-11 14:12:34,967 offlineLogger INFO offline_sku_in_odoo.py 479 第41次获取由于供应商问题需要下架的sku数量: 361
2018-04-11 14:12:41,974 offlineLogger INFO offline_sku_in_odoo.py 479 第42次获取由于供应商问题需要下架的sku数量: 358
2018-04-11 14:12:50,208 offlineLogger INFO offline_sku_in_odoo.py 479 第43次获取由于供应商问题需要下架的sku数量: 370
2018-04-11 14:12:56,667 offlineLogger INFO offline_sku_in_odoo.py 479 第44次获取由于供应商问题需要下架的sku数量: 291
2018-04-11 14:13:03,303 offlineLogger INFO offline_sku_in_odoo.py 479 第45次获取由于供应商问题需要下架的sku数量: 435
2018-04-11 14:13:12,668 offlineLogger INFO offline_sku_in_odoo.py 479 第46次获取由于供应商问题需要下架的sku数量: 544
2018-04-11 14:13:20,287 offlineLogger INFO offline_sku_in_odoo.py 479 第47次获取由于供应商问题需要下架的sku数量: 302
2018-04-11 14:13:26,571 offlineLogger INFO offline_sku_in_odoo.py 479 第48次获取由于供应商问题需要下架的sku数量: 356
2018-04-11 14:13:32,814 offlineLogger INFO offline_sku_in_odoo.py 479 第49次获取由于供应商问题需要下架的sku数量: 296
2018-04-11 14:13:37,549 offlineLogger INFO offline_sku_in_odoo.py 479 第50次获取由于供应商问题需要下架的sku数量: 541
2018-04-11 14:13:43,880 offlineLogger INFO offline_sku_in_odoo.py 479 第51次获取由于供应商问题需要下架的sku数量: 353
2018-04-11 14:13:48,975 offlineLogger INFO offline_sku_in_odoo.py 479 第52次获取由于供应商问题需要下架的sku数量: 388
2018-04-11 14:13:54,474 offlineLogger INFO offline_sku_in_odoo.py 479 第53次获取由于供应商问题需要下架的sku数量: 388
2018-04-11 14:13:57,794 offlineLogger INFO offline_sku_in_odoo.py 479 第54次获取由于供应商问题需要下架的sku数量: 334
2018-04-11 14:14:00,773 offlineLogger INFO offline_sku_in_odoo.py 479 第55次获取由于供应商问题需要下架的sku数量: 306
2018-04-11 14:14:03,037 offlineLogger INFO offline_sku_in_odoo.py 479 第56次获取由于供应商问题需要下架的sku数量: 337
2018-04-11 14:14:05,332 offlineLogger INFO offline_sku_in_odoo.py 479 第57次获取由于供应商问题需要下架的sku数量: 350
2018-04-11 14:14:08,409 offlineLogger INFO offline_sku_in_odoo.py 479 第58次获取由于供应商问题需要下架的sku数量: 386
2018-04-11 14:14:11,366 offlineLogger INFO offline_sku_in_odoo.py 479 第59次获取由于供应商问题需要下架的sku数量: 275
2018-04-11 14:14:16,116 offlineLogger INFO offline_sku_in_odoo.py 479 第60次获取由于供应商问题需要下架的sku数量: 316
2018-04-11 14:14:24,387 offlineLogger INFO offline_sku_in_odoo.py 479 第61次获取由于供应商问题需要下架的sku数量: 267
2018-04-11 14:14:33,340 offlineLogger INFO offline_sku_in_odoo.py 479 第62次获取由于供应商问题需要下架的sku数量: 330
2018-04-11 14:14:41,046 offlineLogger INFO offline_sku_in_odoo.py 479 第63次获取由于供应商问题需要下架的sku数量: 595
2018-04-11 14:14:49,336 offlineLogger INFO offline_sku_in_odoo.py 479 第64次获取由于供应商问题需要下架的sku数量: 580
2018-04-11 14:14:58,393 offlineLogger INFO offline_sku_in_odoo.py 479 第65次获取由于供应商问题需要下架的sku数量: 542
2018-04-11 14:15:03,741 offlineLogger INFO offline_sku_in_odoo.py 479 第66次获取由于供应商问题需要下架的sku数量: 544
2018-04-11 14:15:07,188 offlineLogger INFO offline_sku_in_odoo.py 479 第67次获取由于供应商问题需要下架的sku数量: 755
2018-04-11 14:15:10,465 offlineLogger INFO offline_sku_in_odoo.py 479 第68次获取由于供应商问题需要下架的sku数量: 797
2018-04-11 14:15:14,872 offlineLogger INFO offline_sku_in_odoo.py 479 第69次获取由于供应商问题需要下架的sku数量: 857
2018-04-11 14:15:21,909 offlineLogger INFO offline_sku_in_odoo.py 479 第70次获取由于供应商问题需要下架的sku数量: 572
2018-04-11 14:15:24,667 offlineLogger INFO offline_sku_in_odoo.py 479 第71次获取由于供应商问题需要下架的sku数量: 532
2018-04-11 14:15:31,366 offlineLogger INFO offline_sku_in_odoo.py 479 第72次获取由于供应商问题需要下架的sku数量: 473
2018-04-11 14:15:34,782 offlineLogger INFO offline_sku_in_odoo.py 479 第73次获取由于供应商问题需要下架的sku数量: 378
2018-04-11 14:15:36,732 offlineLogger INFO offline_sku_in_odoo.py 479 第74次获取由于供应商问题需要下架的sku数量: 404
2018-04-11 14:15:43,242 offlineLogger INFO offline_sku_in_odoo.py 479 第75次获取由于供应商问题需要下架的sku数量: 294
2018-04-11 14:15:51,773 offlineLogger INFO offline_sku_in_odoo.py 479 第76次获取由于供应商问题需要下架的sku数量: 304
2018-04-11 14:15:57,307 offlineLogger INFO offline_sku_in_odoo.py 479 第77次获取由于供应商问题需要下架的sku数量: 317
2018-04-11 14:16:04,196 offlineLogger INFO offline_sku_in_odoo.py 479 第78次获取由于供应商问题需要下架的sku数量: 331
2018-04-11 14:16:16,106 offlineLogger INFO offline_sku_in_odoo.py 479 第79次获取由于供应商问题需要下架的sku数量: 571
2018-04-11 14:16:33,362 offlineLogger INFO offline_sku_in_odoo.py 479 第80次获取由于供应商问题需要下架的sku数量: 280
2018-04-11 14:16:48,711 offlineLogger INFO offline_sku_in_odoo.py 479 第81次获取由于供应商问题需要下架的sku数量: 389
2018-04-11 14:17:06,835 offlineLogger INFO offline_sku_in_odoo.py 479 第82次获取由于供应商问题需要下架的sku数量: 393
2018-04-11 14:17:21,485 offlineLogger INFO offline_sku_in_odoo.py 479 第83次获取由于供应商问题需要下架的sku数量: 368
2018-04-11 14:17:40,497 offlineLogger INFO offline_sku_in_odoo.py 479 第84次获取由于供应商问题需要下架的sku数量: 507
2018-04-11 14:17:57,803 offlineLogger INFO offline_sku_in_odoo.py 479 第85次获取由于供应商问题需要下架的sku数量: 344
2018-04-11 14:18:15,856 offlineLogger INFO offline_sku_in_odoo.py 479 第86次获取由于供应商问题需要下架的sku数量: 360
2018-04-11 14:18:26,776 offlineLogger INFO offline_sku_in_odoo.py 479 第87次获取由于供应商问题需要下架的sku数量: 288
2018-04-11 14:18:36,944 offlineLogger INFO offline_sku_in_odoo.py 479 第88次获取由于供应商问题需要下架的sku数量: 273
2018-04-11 14:18:46,276 offlineLogger INFO offline_sku_in_odoo.py 479 第89次获取由于供应商问题需要下架的sku数量: 399
2018-04-11 14:18:56,103 offlineLogger INFO offline_sku_in_odoo.py 479 第90次获取由于供应商问题需要下架的sku数量: 376
2018-04-11 14:19:07,328 offlineLogger INFO offline_sku_in_odoo.py 479 第91次获取由于供应商问题需要下架的sku数量: 403
2018-04-11 14:19:17,290 offlineLogger INFO offline_sku_in_odoo.py 479 第92次获取由于供应商问题需要下架的sku数量: 306
2018-04-11 14:19:31,811 offlineLogger INFO offline_sku_in_odoo.py 479 第93次获取由于供应商问题需要下架的sku数量: 362
2018-04-11 14:19:54,343 offlineLogger INFO offline_sku_in_odoo.py 479 第94次获取由于供应商问题需要下架的sku数量: 171
2018-04-11 14:20:11,909 offlineLogger INFO offline_sku_in_odoo.py 479 第95次获取由于供应商问题需要下架的sku数量: 437
2018-04-11 14:20:23,779 offlineLogger INFO offline_sku_in_odoo.py 479 第96次获取由于供应商问题需要下架的sku数量: 664
2018-04-11 14:20:35,571 offlineLogger INFO offline_sku_in_odoo.py 479 第97次获取由于供应商问题需要下架的sku数量: 669
2018-04-11 14:20:46,405 offlineLogger INFO offline_sku_in_odoo.py 479 第98次获取由于供应商问题需要下架的sku数量: 521
2018-04-11 14:20:52,986 offlineLogger INFO offline_sku_in_odoo.py 479 第99次获取由于供应商问题需要下架的sku数量: 730
2018-04-11 14:20:57,164 offlineLogger INFO offline_sku_in_odoo.py 479 第100次获取由于供应商问题需要下架的sku数量: 618
2018-04-11 14:21:02,010 offlineLogger INFO offline_sku_in_odoo.py 479 第101次获取由于供应商问题需要下架的sku数量: 822
2018-04-11 14:21:06,834 offlineLogger INFO offline_sku_in_odoo.py 479 第102次获取由于供应商问题需要下架的sku数量: 591
2018-04-11 14:21:11,920 offlineLogger INFO offline_sku_in_odoo.py 479 第103次获取由于供应商问题需要下架的sku数量: 577
2018-04-11 14:21:15,598 offlineLogger INFO offline_sku_in_odoo.py 479 第104次获取由于供应商问题需要下架的sku数量: 655
2018-04-11 14:21:23,352 offlineLogger INFO offline_sku_in_odoo.py 479 第105次获取由于供应商问题需要下架的sku数量: 370
2018-04-11 14:21:27,041 offlineLogger INFO offline_sku_in_odoo.py 479 第106次获取由于供应商问题需要下架的sku数量: 320
2018-04-11 14:21:29,748 offlineLogger INFO offline_sku_in_odoo.py 479 第107次获取由于供应商问题需要下架的sku数量: 353
2018-04-11 14:21:36,783 offlineLogger INFO offline_sku_in_odoo.py 479 第108次获取由于供应商问题需要下架的sku数量: 489
2018-04-11 14:21:44,670 offlineLogger INFO offline_sku_in_odoo.py 479 第109次获取由于供应商问题需要下架的sku数量: 468
2018-04-11 14:21:50,688 offlineLogger INFO offline_sku_in_odoo.py 479 第110次获取由于供应商问题需要下架的sku数量: 245
2018-04-11 14:21:56,240 offlineLogger INFO offline_sku_in_odoo.py 479 第111次获取由于供应商问题需要下架的sku数量: 223
2018-04-11 14:22:06,045 offlineLogger INFO offline_sku_in_odoo.py 479 第112次获取由于供应商问题需要下架的sku数量: 304
2018-04-11 14:22:15,253 offlineLogger INFO offline_sku_in_odoo.py 479 第113次获取由于供应商问题需要下架的sku数量: 556
2018-04-11 14:22:21,878 offlineLogger INFO offline_sku_in_odoo.py 479 第114次获取由于供应商问题需要下架的sku数量: 493
2018-04-11 14:22:27,977 offlineLogger INFO offline_sku_in_odoo.py 479 第115次获取由于供应商问题需要下架的sku数量: 427
2018-04-11 14:22:32,842 offlineLogger INFO offline_sku_in_odoo.py 479 第116次获取由于供应商问题需要下架的sku数量: 360
2018-04-11 14:22:38,723 offlineLogger INFO offline_sku_in_odoo.py 479 第117次获取由于供应商问题需要下架的sku数量: 375
2018-04-11 14:22:43,790 offlineLogger INFO offline_sku_in_odoo.py 479 第118次获取由于供应商问题需要下架的sku数量: 258
2018-04-11 14:22:48,978 offlineLogger INFO offline_sku_in_odoo.py 479 第119次获取由于供应商问题需要下架的sku数量: 420
2018-04-11 14:22:52,337 offlineLogger INFO offline_sku_in_odoo.py 479 第120次获取由于供应商问题需要下架的sku数量: 380
2018-04-11 14:22:55,412 offlineLogger INFO offline_sku_in_odoo.py 479 第121次获取由于供应商问题需要下架的sku数量: 401
2018-04-11 14:22:57,459 offlineLogger INFO offline_sku_in_odoo.py 479 第122次获取由于供应商问题需要下架的sku数量: 344
2018-04-11 14:23:00,446 offlineLogger INFO offline_sku_in_odoo.py 479 第123次获取由于供应商问题需要下架的sku数量: 481
2018-04-11 14:23:03,401 offlineLogger INFO offline_sku_in_odoo.py 479 第124次获取由于供应商问题需要下架的sku数量: 379
2018-04-11 14:23:07,387 offlineLogger INFO offline_sku_in_odoo.py 479 第125次获取由于供应商问题需要下架的sku数量: 351
2018-04-11 14:23:11,960 offlineLogger INFO offline_sku_in_odoo.py 479 第126次获取由于供应商问题需要下架的sku数量: 271
2018-04-11 14:23:20,550 offlineLogger INFO offline_sku_in_odoo.py 479 第127次获取由于供应商问题需要下架的sku数量: 274
2018-04-11 14:23:28,495 offlineLogger INFO offline_sku_in_odoo.py 479 第128次获取由于供应商问题需要下架的sku数量: 414
2018-04-11 14:23:35,903 offlineLogger INFO offline_sku_in_odoo.py 479 第129次获取由于供应商问题需要下架的sku数量: 485
2018-04-11 14:23:43,975 offlineLogger INFO offline_sku_in_odoo.py 479 第130次获取由于供应商问题需要下架的sku数量: 574
2018-04-11 14:23:52,996 offlineLogger INFO offline_sku_in_odoo.py 479 第131次获取由于供应商问题需要下架的sku数量: 436
2018-04-11 14:23:53,430 offlineLogger INFO offline_sku_in_odoo.py 479 第132次获取由于供应商问题需要下架的sku数量: 0
2018-04-11 14:25:24,781 offlineLogger INFO offline_sku_in_odoo.py 97 由于供应商问题需要下架的sku数量为: 59013
2018-04-11 14:25:46,608 offlineLogger INFO offline_sku_in_odoo.py 415 所有线上商品的cluster_id数量为: 271237
2018-04-11 14:32:15,962 offlineLogger INFO offline_sku_in_odoo.py 417 需要merged的cluster_id数量为: 16186
2018-04-11 15:02:39,483 offlineLogger INFO offline_sku_in_odoo.py 575 ============start processing at 2018-04-11 15:02:39============================
2018-04-11 15:02:43,891 offlineLogger INFO offline_sku_in_odoo.py 266 xy_idoo长度: 1091, yh_idoo长度: 1298, xs_idoo长度: 1702
2018-04-11 15:02:43,893 offlineLogger INFO offline_sku_in_odoo.py 275 还有库存的sku数量: 62
2018-04-11 15:02:43,893 offlineLogger INFO offline_sku_in_odoo.py 86 由于供应商还有库存不能下架的sku数量: 62
2018-04-11 15:02:47,563 offlineLogger INFO offline_sku_in_odoo.py 88 由于自己还有库存不能下架的sku数量: 15050
2018-04-11 15:02:49,613 offlineLogger INFO offline_sku_in_odoo.py 90 由于fast_on_shelf不能下架的sku数量: 6723
2018-04-11 15:02:49,644 offlineLogger INFO offline_sku_in_odoo.py 92 由于黑名单不能下架的sku数量: 0
2018-04-11 15:02:49,645 offlineLogger INFO offline_sku_in_odoo.py 94 由于以上全部原因不能下架的sku总数: 21835
2018-04-11 15:04:52,378 offlineLogger INFO offline_sku_in_odoo.py 415 所有线上商品的cluster_id数量为: 271318
2018-04-11 15:09:29,979 offlineLogger INFO offline_sku_in_odoo.py 592 ============start processing at 2018-04-11 15:09:29============================
2018-04-11 15:09:33,628 offlineLogger INFO offline_sku_in_odoo.py 266 xy_idoo长度: 1092, yh_idoo长度: 1298, xs_idoo长度: 1704
2018-04-11 15:09:33,629 offlineLogger INFO offline_sku_in_odoo.py 275 还有库存的sku数量: 62
2018-04-11 15:09:33,629 offlineLogger INFO offline_sku_in_odoo.py 86 由于供应商还有库存不能下架的sku数量: 62
2018-04-11 15:09:36,461 offlineLogger INFO offline_sku_in_odoo.py 88 由于自己还有库存不能下架的sku数量: 15050
2018-04-11 15:09:38,395 offlineLogger INFO offline_sku_in_odoo.py 90 由于fast_on_shelf不能下架的sku数量: 6723
2018-04-11 15:09:38,415 offlineLogger INFO offline_sku_in_odoo.py 92 由于黑名单不能下架的sku数量: 0
2018-04-11 15:09:38,415 offlineLogger INFO offline_sku_in_odoo.py 94 由于以上全部原因不能下架的sku总数: 21835
2018-04-11 15:10:29,357 offlineLogger INFO offline_sku_in_odoo.py 432 所有线上商品的cluster_id数量为: 271320
2018-04-11 15:12:34,544 offlineLogger INFO offline_sku_in_odoo.py 592 ============start processing at 2018-04-11 15:12:34============================
2018-04-11 15:12:34,735 offlineLogger INFO offline_sku_in_odoo.py 434 需要merged的cluster_id数量为: 16182
2018-04-11 15:12:36,904 offlineLogger INFO offline_sku_in_odoo.py 266 xy_idoo长度: 1092, yh_idoo长度: 1298, xs_idoo长度: 1702
2018-04-11 15:12:36,905 offlineLogger INFO offline_sku_in_odoo.py 275 还有库存的sku数量: 62
2018-04-11 15:12:36,906 offlineLogger INFO offline_sku_in_odoo.py 86 由于供应商还有库存不能下架的sku数量: 62
2018-04-11 15:12:39,635 offlineLogger INFO offline_sku_in_odoo.py 88 由于自己还有库存不能下架的sku数量: 15050
2018-04-11 15:13:38,038 offlineLogger INFO offline_sku_in_odoo.py 90 由于fast_on_shelf不能下架的sku数量: 6723
2018-04-11 15:13:38,053 offlineLogger INFO offline_sku_in_odoo.py 92 由于黑名单不能下架的sku数量: 0
2018-04-11 15:13:38,054 offlineLogger INFO offline_sku_in_odoo.py 94 由于以上全部原因不能下架的sku总数: 21835
2018-04-11 15:14:47,987 offlineLogger INFO offline_sku_in_odoo.py 432 所有线上商品的cluster_id数量为: 271323
2018-04-11 15:15:33,928 offlineLogger INFO offline_sku_in_odoo.py 434 需要merged的cluster_id数量为: 16185
2018-04-11 15:18:32,844 offlineLogger INFO offline_sku_in_odoo.py 592 ============start processing at 2018-04-11 15:18:32============================
2018-04-11 15:18:39,504 offlineLogger INFO offline_sku_in_odoo.py 266 xy_idoo长度: 1092, yh_idoo长度: 1298, xs_idoo长度: 1701
2018-04-11 15:18:39,506 offlineLogger INFO offline_sku_in_odoo.py 275 还有库存的sku数量: 62
2018-04-11 15:18:40,908 offlineLogger INFO offline_sku_in_odoo.py 86 由于供应商还有库存不能下架的sku数量: 62
2018-04-11 15:18:52,522 offlineLogger INFO offline_sku_in_odoo.py 88 由于自己还有库存不能下架的sku数量: 15050
2018-04-11 15:18:54,478 offlineLogger INFO offline_sku_in_odoo.py 90 由于fast_on_shelf不能下架的sku数量: 6723
2018-04-11 15:18:54,496 offlineLogger INFO offline_sku_in_odoo.py 92 由于黑名单不能下架的sku数量: 0
2018-04-11 15:18:54,498 offlineLogger INFO offline_sku_in_odoo.py 94 由于以上全部原因不能下架的sku总数: 21835
2018-04-11 15:19:54,528 offlineLogger INFO offline_sku_in_odoo.py 432 所有线上商品的cluster_id数量为: 271333
2018-04-11 15:23:01,425 offlineLogger INFO offline_sku_in_odoo.py 434 需要merged的cluster_id数量为: 16188
2018-04-11 15:33:22,921 offlineLogger INFO offline_sku_in_odoo.py 592 ============start processing at 2018-04-11 15:33:22============================
2018-04-11 15:33:26,714 offlineLogger INFO offline_sku_in_odoo.py 592 ============start processing at 2018-04-11 15:33:26============================
2018-04-11 15:33:27,677 offlineLogger INFO offline_sku_in_odoo.py 266 xy_idoo长度: 1089, yh_idoo长度: 1299, xs_idoo长度: 1703
2018-04-11 15:33:27,678 offlineLogger INFO offline_sku_in_odoo.py 275 还有库存的sku数量: 62
2018-04-11 15:33:27,678 offlineLogger INFO offline_sku_in_odoo.py 86 由于供应商还有库存不能下架的sku数量: 62
2018-04-11 15:33:30,631 offlineLogger INFO offline_sku_in_odoo.py 88 由于自己还有库存不能下架的sku数量: 15050
2018-04-11 15:33:32,608 offlineLogger INFO offline_sku_in_odoo.py 90 由于fast_on_shelf不能下架的sku数量: 6723
2018-04-11 15:33:32,620 offlineLogger INFO offline_sku_in_odoo.py 92 由于黑名单不能下架的sku数量: 0
2018-04-11 15:33:32,621 offlineLogger INFO offline_sku_in_odoo.py 94 由于以上全部原因不能下架的sku总数: 21835
2018-04-11 15:33:35,183 offlineLogger INFO offline_sku_in_odoo.py 432 所有线上商品的cluster_id数量为: 271364
2018-04-11 15:34:00,400 offlineLogger INFO offline_sku_in_odoo.py 266 xy_idoo长度: 1089, yh_idoo长度: 1299, xs_idoo长度: 1704
2018-04-11 15:34:00,401 offlineLogger INFO offline_sku_in_odoo.py 275 还有库存的sku数量: 62
2018-04-11 15:34:00,401 offlineLogger INFO offline_sku_in_odoo.py 86 由于供应商还有库存不能下架的sku数量: 62
2018-04-11 15:34:03,294 offlineLogger INFO offline_sku_in_odoo.py 88 由于自己还有库存不能下架的sku数量: 15050
2018-04-11 15:34:05,066 offlineLogger INFO offline_sku_in_odoo.py 90 由于fast_on_shelf不能下架的sku数量: 6723
2018-04-11 15:34:05,087 offlineLogger INFO offline_sku_in_odoo.py 92 由于黑名单不能下架的sku数量: 0
2018-04-11 15:34:05,088 offlineLogger INFO offline_sku_in_odoo.py 94 由于以上全部原因不能下架的sku总数: 21835
2018-04-11 15:34:05,343 offlineLogger INFO offline_sku_in_odoo.py 434 需要merged的cluster_id数量为: 16182
2018-04-11 15:34:10,236 offlineLogger INFO offline_sku_in_odoo.py 432 所有线上商品的cluster_id数量为: 271364
2018-04-11 15:34:42,021 offlineLogger INFO offline_sku_in_odoo.py 434 需要merged的cluster_id数量为: 16186
2018-04-11 15:35:08,791 offlineLogger INFO offline_sku_in_odoo.py 592 ============start processing at 2018-04-11 15:35:08============================
2018-04-11 15:35:11,034 offlineLogger INFO offline_sku_in_odoo.py 266 xy_idoo长度: 1088, yh_idoo长度: 1299, xs_idoo长度: 1704
2018-04-11 15:35:11,035 offlineLogger INFO offline_sku_in_odoo.py 275 还有库存的sku数量: 62
2018-04-11 15:35:11,036 offlineLogger INFO offline_sku_in_odoo.py 86 由于供应商还有库存不能下架的sku数量: 62
2018-04-11 15:35:13,772 offlineLogger INFO offline_sku_in_odoo.py 88 由于自己还有库存不能下架的sku数量: 15050
2018-04-11 15:35:15,525 offlineLogger INFO offline_sku_in_odoo.py 90 由于fast_on_shelf不能下架的sku数量: 6723
2018-04-11 15:35:15,541 offlineLogger INFO offline_sku_in_odoo.py 92 由于黑名单不能下架的sku数量: 0
2018-04-11 15:35:15,542 offlineLogger INFO offline_sku_in_odoo.py 94 由于以上全部原因不能下架的sku总数: 21835
2018-04-11 15:35:21,398 offlineLogger INFO offline_sku_in_odoo.py 432 所有线上商品的cluster_id数量为: 271369
2018-04-11 15:35:50,641 offlineLogger INFO offline_sku_in_odoo.py 434 需要merged的cluster_id数量为: 16182
2018-04-11 15:45:47,765 offlineLogger INFO offline_sku_in_odoo.py 598 ============start processing at 2018-04-11 15:45:47============================
2018-04-11 15:45:51,172 offlineLogger INFO offline_sku_in_odoo.py 266 xy_idoo长度: 1089, yh_idoo长度: 1300, xs_idoo长度: 1704
2018-04-11 15:45:51,173 offlineLogger INFO offline_sku_in_odoo.py 275 还有库存的sku数量: 62
2018-04-11 15:45:51,174 offlineLogger INFO offline_sku_in_odoo.py 86 由于供应商还有库存不能下架的sku数量: 62
2018-04-11 15:45:53,965 offlineLogger INFO offline_sku_in_odoo.py 88 由于自己还有库存不能下架的sku数量: 15050
2018-04-11 15:45:55,840 offlineLogger INFO offline_sku_in_odoo.py 90 由于fast_on_shelf不能下架的sku数量: 6723
2018-04-11 15:45:55,856 offlineLogger INFO offline_sku_in_odoo.py 92 由于黑名单不能下架的sku数量: 0
2018-04-11 15:45:55,857 offlineLogger INFO offline_sku_in_odoo.py 94 由于以上全部原因不能下架的sku总数: 21835
2018-04-11 15:45:58,606 offlineLogger INFO offline_sku_in_odoo.py 438 所有线上商品的cluster_id数量为: 271397
2018-04-11 15:46:34,228 offlineLogger INFO offline_sku_in_odoo.py 440 需要merged的cluster_id数量为: 16183
2018-04-11 15:47:50,319 offlineLogger INFO offline_sku_in_odoo.py 598 ============start processing at 2018-04-11 15:47:50============================
2018-04-11 15:47:52,085 offlineLogger INFO offline_sku_in_odoo.py 266 xy_idoo长度: 1089, yh_idoo长度: 1300, xs_idoo长度: 1704
2018-04-11 15:47:52,086 offlineLogger INFO offline_sku_in_odoo.py 275 还有库存的sku数量: 62
2018-04-11 15:47:52,087 offlineLogger INFO offline_sku_in_odoo.py 86 由于供应商还有库存不能下架的sku数量: 62
2018-04-11 15:47:54,821 offlineLogger INFO offline_sku_in_odoo.py 88 由于自己还有库存不能下架的sku数量: 15050
2018-04-11 15:47:56,875 offlineLogger INFO offline_sku_in_odoo.py 90 由于fast_on_shelf不能下架的sku数量: 6723
2018-04-11 15:47:56,882 offlineLogger INFO offline_sku_in_odoo.py 92 由于黑名单不能下架的sku数量: 0
2018-04-11 15:47:56,882 offlineLogger INFO offline_sku_in_odoo.py 94 由于以上全部原因不能下架的sku总数: 21835
2018-04-11 15:48:00,821 offlineLogger INFO offline_sku_in_odoo.py 438 所有线上商品的cluster_id数量为: 271401
2018-04-11 15:48:29,713 offlineLogger INFO offline_sku_in_odoo.py 440 需要merged的cluster_id数量为: 16184
2018-04-11 15:52:12,883 offlineLogger INFO offline_sku_in_odoo.py 598 ============start processing at 2018-04-11 15:52:12============================
2018-04-11 15:52:14,661 offlineLogger INFO offline_sku_in_odoo.py 266 xy_idoo长度: 1089, yh_idoo长度: 1300, xs_idoo长度: 1704
2018-04-11 15:52:14,662 offlineLogger INFO offline_sku_in_odoo.py 275 还有库存的sku数量: 62
2018-04-11 15:52:14,662 offlineLogger INFO offline_sku_in_odoo.py 86 由于供应商还有库存不能下架的sku数量: 62
2018-04-11 15:52:17,418 offlineLogger INFO offline_sku_in_odoo.py 88 由于自己还有库存不能下架的sku数量: 15050
2018-04-11 15:52:19,331 offlineLogger INFO offline_sku_in_odoo.py 90 由于fast_on_shelf不能下架的sku数量: 6723
2018-04-11 15:52:19,353 offlineLogger INFO offline_sku_in_odoo.py 92 由于黑名单不能下架的sku数量: 0
2018-04-11 15:52:19,353 offlineLogger INFO offline_sku_in_odoo.py 94 由于以上全部原因不能下架的sku总数: 21835
2018-04-11 15:52:21,858 offlineLogger INFO offline_sku_in_odoo.py 438 所有线上商品的cluster_id数量为: 271412
2018-04-11 15:52:53,140 offlineLogger INFO offline_sku_in_odoo.py 440 需要merged的cluster_id数量为: 16183
2018-04-11 15:53:50,424 offlineLogger INFO offline_sku_in_odoo.py 598 ============start processing at 2018-04-11 15:53:50============================
2018-04-11 15:53:51,766 offlineLogger INFO offline_sku_in_odoo.py 266 xy_idoo长度: 1089, yh_idoo长度: 1300, xs_idoo长度: 1704
2018-04-11 15:53:51,767 offlineLogger INFO offline_sku_in_odoo.py 275 还有库存的sku数量: 62
2018-04-11 15:53:51,768 offlineLogger INFO offline_sku_in_odoo.py 86 由于供应商还有库存不能下架的sku数量: 62
2018-04-11 15:53:54,596 offlineLogger INFO offline_sku_in_odoo.py 88 由于自己还有库存不能下架的sku数量: 15050
2018-04-11 15:53:57,027 offlineLogger INFO offline_sku_in_odoo.py 90 由于fast_on_shelf不能下架的sku数量: 6723
2018-04-11 15:53:57,037 offlineLogger INFO offline_sku_in_odoo.py 92 由于黑名单不能下架的sku数量: 0
2018-04-11 15:53:57,038 offlineLogger INFO offline_sku_in_odoo.py 94 由于以上全部原因不能下架的sku总数: 21835
2018-04-11 15:54:00,952 offlineLogger INFO offline_sku_in_odoo.py 438 所有线上商品的cluster_id数量为: 271417
2018-04-11 15:54:30,745 offlineLogger INFO offline_sku_in_odoo.py 440 需要merged的cluster_id数量为: 16185
2018-04-11 15:59:38,446 offlineLogger INFO offline_sku_in_odoo.py 598 ============start processing at 2018-04-11 15:59:38============================
2018-04-11 15:59:41,176 offlineLogger INFO offline_sku_in_odoo.py 266 xy_idoo长度: 1089, yh_idoo长度: 1300, xs_idoo长度: 1704
2018-04-11 15:59:41,177 offlineLogger INFO offline_sku_in_odoo.py 275 还有库存的sku数量: 62
2018-04-11 15:59:41,177 offlineLogger INFO offline_sku_in_odoo.py 86 由于供应商还有库存不能下架的sku数量: 62
2018-04-11 15:59:43,847 offlineLogger INFO offline_sku_in_odoo.py 88 由于自己还有库存不能下架的sku数量: 15050
2018-04-11 15:59:45,738 offlineLogger INFO offline_sku_in_odoo.py 90 由于fast_on_shelf不能下架的sku数量: 6723
2018-04-11 15:59:45,750 offlineLogger INFO offline_sku_in_odoo.py 92 由于黑名单不能下架的sku数量: 0
2018-04-11 15:59:45,751 offlineLogger INFO offline_sku_in_odoo.py 94 由于以上全部原因不能下架的sku总数: 21835
2018-04-11 15:59:48,523 offlineLogger INFO offline_sku_in_odoo.py 438 所有线上商品的cluster_id数量为: 271430
2018-04-11 16:00:20,409 offlineLogger INFO offline_sku_in_odoo.py 440 需要merged的cluster_id数量为: 16184
2018-04-11 16:02:47,207 offlineLogger INFO offline_sku_in_odoo.py 598 ============start processing at 2018-04-11 16:02:47============================
2018-04-11 16:02:49,003 offlineLogger INFO offline_sku_in_odoo.py 266 xy_idoo长度: 1089, yh_idoo长度: 1300, xs_idoo长度: 1704
2018-04-11 16:02:49,004 offlineLogger INFO offline_sku_in_odoo.py 275 还有库存的sku数量: 62
2018-04-11 16:02:49,004 offlineLogger INFO offline_sku_in_odoo.py 86 由于供应商还有库存不能下架的sku数量: 62
2018-04-11 16:02:51,680 offlineLogger INFO offline_sku_in_odoo.py 88 由于自己还有库存不能下架的sku数量: 15050
2018-04-11 16:02:54,027 offlineLogger INFO offline_sku_in_odoo.py 90 由于fast_on_shelf不能下架的sku数量: 6723
2018-04-11 16:02:54,038 offlineLogger INFO offline_sku_in_odoo.py 92 由于黑名单不能下架的sku数量: 0
2018-04-11 16:02:54,038 offlineLogger INFO offline_sku_in_odoo.py 94 由于以上全部原因不能下架的sku总数: 21835
2018-04-11 16:02:57,472 offlineLogger INFO offline_sku_in_odoo.py 438 所有线上商品的cluster_id数量为: 271438
2018-04-11 16:03:34,230 offlineLogger INFO offline_sku_in_odoo.py 440 需要merged的cluster_id数量为: 16183
2018-04-11 16:06:36,665 offlineLogger INFO offline_sku_in_odoo.py 444 由于merge需要下架的cluster_id数量为: 2782
2018-04-11 16:06:54,587 offlineLogger INFO offline_sku_in_odoo.py 451 由于merge需要下架的sku数量为: 18787
2018-04-11 16:07:02,936 offlineLogger INFO offline_sku_in_odoo.py 99 由于合并问题需要下架的sku数量为: 18787
2018-04-11 16:07:05,973 offlineLogger INFO offline_sku_in_odoo.py 105 需要下架的sku总数: 18787
2018-04-11 16:07:56,893 offlineLogger INFO offline_sku_in_odoo.py 598 ============start processing at 2018-04-11 16:07:56============================
2018-04-11 16:07:58,498 offlineLogger INFO offline_sku_in_odoo.py 266 xy_idoo长度: 1088, yh_idoo长度: 1300, xs_idoo长度: 1705
2018-04-11 16:07:58,499 offlineLogger INFO offline_sku_in_odoo.py 275 还有库存的sku数量: 62
2018-04-11 16:07:58,500 offlineLogger INFO offline_sku_in_odoo.py 86 由于供应商还有库存不能下架的sku数量: 62
2018-04-11 16:08:01,304 offlineLogger INFO offline_sku_in_odoo.py 88 由于自己还有库存不能下架的sku数量: 15050
2018-04-11 16:08:03,275 offlineLogger INFO offline_sku_in_odoo.py 90 由于fast_on_shelf不能下架的sku数量: 6723
2018-04-11 16:08:03,309 offlineLogger INFO offline_sku_in_odoo.py 92 由于黑名单不能下架的sku数量: 0
2018-04-11 16:08:03,310 offlineLogger INFO offline_sku_in_odoo.py 94 由于以上全部原因不能下架的sku总数: 21835
2018-04-11 16:08:56,199 offlineLogger INFO offline_sku_in_odoo.py 458 过滤后的上架sku数量为: 1322322
2018-04-11 16:08:56,199 offlineLogger INFO offline_sku_in_odoo.py 464 需要获取67次由于供应商问题需要下架的sku数量
2018-04-11 16:09:12,144 offlineLogger INFO offline_sku_in_odoo.py 502 第0次获取由于供应商问题需要下架的sku数量: 1336
2018-04-11 16:09:24,525 offlineLogger INFO offline_sku_in_odoo.py 502 第1次获取由于供应商问题需要下架的sku数量: 1678
2018-04-11 16:09:37,687 offlineLogger INFO offline_sku_in_odoo.py 502 第2次获取由于供应商问题需要下架的sku数量: 1300
2018-04-11 16:09:50,926 offlineLogger INFO offline_sku_in_odoo.py 502 第3次获取由于供应商问题需要下架的sku数量: 999
2018-04-11 16:10:02,292 offlineLogger INFO offline_sku_in_odoo.py 502 第4次获取由于供应商问题需要下架的sku数量: 967
2018-04-11 16:10:22,762 offlineLogger INFO offline_sku_in_odoo.py 502 第5次获取由于供应商问题需要下架的sku数量: 607
2018-04-11 16:10:37,201 offlineLogger INFO offline_sku_in_odoo.py 502 第6次获取由于供应商问题需要下架的sku数量: 748
2018-04-11 16:10:51,456 offlineLogger INFO offline_sku_in_odoo.py 502 第7次获取由于供应商问题需要下架的sku数量: 709
2018-04-11 16:11:03,738 offlineLogger INFO offline_sku_in_odoo.py 502 第8次获取由于供应商问题需要下架的sku数量: 836
2018-04-11 16:11:13,414 offlineLogger INFO offline_sku_in_odoo.py 502 第9次获取由于供应商问题需要下架的sku数量: 804
2018-04-11 16:11:21,042 offlineLogger INFO offline_sku_in_odoo.py 502 第10次获取由于供应商问题需要下架的sku数量: 821
2018-04-11 16:11:25,847 offlineLogger INFO offline_sku_in_odoo.py 502 第11次获取由于供应商问题需要下架的sku数量: 738
2018-04-11 16:11:31,071 offlineLogger INFO offline_sku_in_odoo.py 502 第12次获取由于供应商问题需要下架的sku数量: 765
2018-04-11 16:11:40,510 offlineLogger INFO offline_sku_in_odoo.py 502 第13次获取由于供应商问题需要下架的sku数量: 607
2018-04-11 16:11:56,676 offlineLogger INFO offline_sku_in_odoo.py 502 第14次获取由于供应商问题需要下架的sku数量: 588
2018-04-11 16:12:11,873 offlineLogger INFO offline_sku_in_odoo.py 502 第15次获取由于供应商问题需要下架的sku数量: 1356
2018-04-11 16:12:23,519 offlineLogger INFO offline_sku_in_odoo.py 502 第16次获取由于供应商问题需要下架的sku数量: 1367
2018-04-11 16:12:30,275 offlineLogger INFO offline_sku_in_odoo.py 502 第17次获取由于供应商问题需要下架的sku数量: 1453
2018-04-11 16:12:37,435 offlineLogger INFO offline_sku_in_odoo.py 502 第18次获取由于供应商问题需要下架的sku数量: 1185
2018-04-11 16:12:45,338 offlineLogger INFO offline_sku_in_odoo.py 502 第19次获取由于供应商问题需要下架的sku数量: 995
2018-04-11 16:12:49,915 offlineLogger INFO offline_sku_in_odoo.py 502 第20次获取由于供应商问题需要下架的sku数量: 780
2018-04-11 16:13:04,079 offlineLogger INFO offline_sku_in_odoo.py 502 第21次获取由于供应商问题需要下架的sku数量: 750
2018-04-11 16:13:16,436 offlineLogger INFO offline_sku_in_odoo.py 502 第22次获取由于供应商问题需要下架的sku数量: 682
2018-04-11 16:13:33,544 offlineLogger INFO offline_sku_in_odoo.py 502 第23次获取由于供应商问题需要下架的sku数量: 854
2018-04-11 16:13:45,516 offlineLogger INFO offline_sku_in_odoo.py 502 第24次获取由于供应商问题需要下架的sku数量: 673
2018-04-11 16:13:55,867 offlineLogger INFO offline_sku_in_odoo.py 502 第25次获取由于供应商问题需要下架的sku数量: 924
2018-04-11 16:14:05,797 offlineLogger INFO offline_sku_in_odoo.py 502 第26次获取由于供应商问题需要下架的sku数量: 769
2018-04-11 16:14:11,476 offlineLogger INFO offline_sku_in_odoo.py 502 第27次获取由于供应商问题需要下架的sku数量: 576
2018-04-11 16:14:15,205 offlineLogger INFO offline_sku_in_odoo.py 502 第28次获取由于供应商问题需要下架的sku数量: 700
2018-04-11 16:14:20,399 offlineLogger INFO offline_sku_in_odoo.py 502 第29次获取由于供应商问题需要下架的sku数量: 699
2018-04-11 16:14:32,021 offlineLogger INFO offline_sku_in_odoo.py 502 第30次获取由于供应商问题需要下架的sku数量: 605
2018-04-11 16:14:47,568 offlineLogger INFO offline_sku_in_odoo.py 502 第31次获取由于供应商问题需要下架的sku数量: 839
2018-04-11 16:15:03,959 offlineLogger INFO offline_sku_in_odoo.py 502 第32次获取由于供应商问题需要下架的sku数量: 1199
2018-04-11 16:15:12,059 offlineLogger INFO offline_sku_in_odoo.py 502 第33次获取由于供应商问题需要下架的sku数量: 1241
2018-04-11 16:15:18,221 offlineLogger INFO offline_sku_in_odoo.py 502 第34次获取由于供应商问题需要下架的sku数量: 1675
2018-04-11 16:15:24,258 offlineLogger INFO offline_sku_in_odoo.py 502 第35次获取由于供应商问题需要下架的sku数量: 1078
2018-04-11 16:15:32,736 offlineLogger INFO offline_sku_in_odoo.py 502 第36次获取由于供应商问题需要下架的sku数量: 904
2018-04-11 16:15:39,182 offlineLogger INFO offline_sku_in_odoo.py 502 第37次获取由于供应商问题需要下架的sku数量: 673
2018-04-11 16:15:54,950 offlineLogger INFO offline_sku_in_odoo.py 502 第38次获取由于供应商问题需要下架的sku数量: 586
2018-04-11 16:16:11,445 offlineLogger INFO offline_sku_in_odoo.py 502 第39次获取由于供应商问题需要下架的sku数量: 822
2018-04-11 16:16:30,934 offlineLogger INFO offline_sku_in_odoo.py 502 第40次获取由于供应商问题需要下架的sku数量: 799
2018-04-11 16:16:58,842 offlineLogger INFO offline_sku_in_odoo.py 502 第41次获取由于供应商问题需要下架的sku数量: 737
2018-04-11 16:17:30,955 offlineLogger INFO offline_sku_in_odoo.py 502 第42次获取由于供应商问题需要下架的sku数量: 882
2018-04-11 16:17:59,172 offlineLogger INFO offline_sku_in_odoo.py 502 第43次获取由于供应商问题需要下架的sku数量: 627
2018-04-11 16:18:19,642 offlineLogger INFO offline_sku_in_odoo.py 502 第44次获取由于供应商问题需要下架的sku数量: 664
2018-04-11 16:18:40,432 offlineLogger INFO offline_sku_in_odoo.py 502 第45次获取由于供应商问题需要下架的sku数量: 788
2018-04-11 16:19:07,976 offlineLogger INFO offline_sku_in_odoo.py 502 第46次获取由于供应商问题需要下架的sku数量: 673
2018-04-11 16:19:50,643 offlineLogger INFO offline_sku_in_odoo.py 502 第47次获取由于供应商问题需要下架的sku数量: 546
2018-04-11 16:20:27,994 offlineLogger INFO offline_sku_in_odoo.py 502 第48次获取由于供应商问题需要下架的sku数量: 1344
2018-04-11 16:20:47,255 offlineLogger INFO offline_sku_in_odoo.py 502 第49次获取由于供应商问题需要下架的sku数量: 1179
2018-04-11 16:20:55,221 offlineLogger INFO offline_sku_in_odoo.py 502 第50次获取由于供应商问题需要下架的sku数量: 1342
2018-04-11 16:21:05,184 offlineLogger INFO offline_sku_in_odoo.py 502 第51次获取由于供应商问题需要下架的sku数量: 1353
2018-04-11 16:21:16,290 offlineLogger INFO offline_sku_in_odoo.py 502 第52次获取由于供应商问题需要下架的sku数量: 959
2018-04-11 16:21:21,888 offlineLogger INFO offline_sku_in_odoo.py 502 第53次获取由于供应商问题需要下架的sku数量: 750
2018-04-11 16:21:37,778 offlineLogger INFO offline_sku_in_odoo.py 502 第54次获取由于供应商问题需要下架的sku数量: 954
2018-04-11 16:21:48,067 offlineLogger INFO offline_sku_in_odoo.py 502 第55次获取由于供应商问题需要下架的sku数量: 476
2018-04-11 16:22:06,156 offlineLogger INFO offline_sku_in_odoo.py 502 第56次获取由于供应商问题需要下架的sku数量: 690
2018-04-11 16:22:19,072 offlineLogger INFO offline_sku_in_odoo.py 502 第57次获取由于供应商问题需要下架的sku数量: 1026
2018-04-11 16:22:29,268 offlineLogger INFO offline_sku_in_odoo.py 502 第58次获取由于供应商问题需要下架的sku数量: 743
2018-04-11 16:22:38,529 offlineLogger INFO offline_sku_in_odoo.py 502 第59次获取由于供应商问题需要下架的sku数量: 706
2018-04-11 16:22:44,253 offlineLogger INFO offline_sku_in_odoo.py 502 第60次获取由于供应商问题需要下架的sku数量: 778
2018-04-11 16:22:48,286 offlineLogger INFO offline_sku_in_odoo.py 502 第61次获取由于供应商问题需要下架的sku数量: 818
2018-04-11 16:22:53,591 offlineLogger INFO offline_sku_in_odoo.py 502 第62次获取由于供应商问题需要下架的sku数量: 737
2018-04-11 16:23:05,855 offlineLogger INFO offline_sku_in_odoo.py 502 第63次获取由于供应商问题需要下架的sku数量: 560
2018-04-11 16:23:20,314 offlineLogger INFO offline_sku_in_odoo.py 502 第64次获取由于供应商问题需要下架的sku数量: 856
2018-04-11 16:23:36,800 offlineLogger INFO offline_sku_in_odoo.py 502 第65次获取由于供应商问题需要下架的sku数量: 1062
2018-04-11 16:23:38,087 offlineLogger INFO offline_sku_in_odoo.py 502 第66次获取由于供应商问题需要下架的sku数量: 52
2018-04-11 16:23:38,102 offlineLogger INFO offline_sku_in_odoo.py 97 由于供应商问题需要下架的sku数量为: 58989
2018-04-11 16:23:40,543 offlineLogger INFO offline_sku_in_odoo.py 438 所有线上商品的cluster_id数量为: 271484
2018-04-11 16:25:03,360 offlineLogger INFO offline_sku_in_odoo.py 440 需要merged的cluster_id数量为: 16184
2018-04-11 16:30:23,695 offlineLogger INFO offline_sku_in_odoo.py 444 由于merge需要下架的cluster_id数量为: 2782
2018-04-11 16:30:28,286 offlineLogger INFO offline_sku_in_odoo.py 451 由于merge需要下架的sku数量为: 18787
2018-04-11 16:30:28,293 offlineLogger INFO offline_sku_in_odoo.py 99 由于合并问题需要下架的sku数量为: 18787
2018-04-11 16:34:41,971 offlineLogger INFO offline_sku_in_odoo.py 105 需要下架的sku总数: 18787
2018-04-11 17:46:41,043 offlineLogger INFO offline_sku_in_odoo.py 561 ============start processing at 2018-04-11 17:46:41============================
2018-04-11 17:46:44,132 offlineLogger INFO offline_sku_in_odoo.py 333 xy_idoo长度: 1090, yh_idoo长度: 1303, xs_idoo长度: 1717
2018-04-11 17:46:44,133 offlineLogger INFO offline_sku_in_odoo.py 342 还有库存的sku数量: 63
2018-04-11 17:46:44,133 offlineLogger INFO offline_sku_in_odoo.py 86 由于供应商还有库存不能下架的sku数量: 63
2018-04-11 17:46:55,564 offlineLogger INFO offline_sku_in_odoo.py 88 由于自己还有库存不能下架的sku数量: 15050
2018-04-11 17:46:55,791 offlineLogger INFO offline_sku_in_odoo.py 90 由于fast_on_shelf不能下架的sku数量: 2360
2018-04-11 17:46:55,803 offlineLogger INFO offline_sku_in_odoo.py 92 由于黑名单不能下架的sku数量: 0
2018-04-11 17:46:55,804 offlineLogger INFO offline_sku_in_odoo.py 94 由于以上全部原因不能下架的sku总数: 17473
2018-04-11 17:46:56,952 offlineLogger INFO offline_sku_in_odoo.py 487 过滤后的上架sku数量为: 24636
2018-04-11 17:46:56,952 offlineLogger INFO offline_sku_in_odoo.py 493 需要获取2次由于供应商问题需要下架的sku数量
2018-04-11 17:46:57,502 offlineLogger INFO offline_sku_in_odoo.py 514 第0次获取由于供应商问题需要下架的sku数量: 0
2018-04-11 17:46:57,588 offlineLogger INFO offline_sku_in_odoo.py 514 第1次获取由于供应商问题需要下架的sku数量: 0
2018-04-11 17:46:57,588 offlineLogger INFO offline_sku_in_odoo.py 97 由于供应商问题需要下架的sku数量为: 0
2018-04-11 17:46:57,705 offlineLogger INFO offline_sku_in_odoo.py 467 所有线上商品的cluster_id数量为: 7390
2018-04-11 17:46:58,171 offlineLogger INFO offline_sku_in_odoo.py 469 需要merged的cluster_id数量为: 25
2018-04-11 17:46:58,238 offlineLogger INFO offline_sku_in_odoo.py 473 由于merge需要下架的cluster_id数量为: 10
2018-04-11 17:47:01,907 offlineLogger INFO offline_sku_in_odoo.py 480 由于merge需要下架的sku数量为: 24
2018-04-11 17:47:01,907 offlineLogger INFO offline_sku_in_odoo.py 99 由于合并问题需要下架的sku数量为: 24
2018-04-11 17:47:01,907 offlineLogger INFO offline_sku_in_odoo.py 105 需要下架的sku总数: 24
2018-04-11 17:47:41,155 offlineLogger INFO offline_sku_in_odoo.py 561 ============start processing at 2018-04-11 17:47:41============================
2018-04-11 17:47:46,291 offlineLogger INFO offline_sku_in_odoo.py 561 ============start processing at 2018-04-11 17:47:46============================
2018-04-11 17:47:49,486 offlineLogger INFO offline_sku_in_odoo.py 333 xy_idoo长度: 1090, yh_idoo长度: 1303, xs_idoo长度: 1717
2018-04-11 17:47:49,487 offlineLogger INFO offline_sku_in_odoo.py 342 还有库存的sku数量: 63
2018-04-11 17:47:49,488 offlineLogger INFO offline_sku_in_odoo.py 86 由于供应商还有库存不能下架的sku数量: 63
2018-04-11 17:47:52,134 offlineLogger INFO offline_sku_in_odoo.py 88 由于自己还有库存不能下架的sku数量: 15050
2018-04-11 17:47:52,354 offlineLogger INFO offline_sku_in_odoo.py 90 由于fast_on_shelf不能下架的sku数量: 2360
2018-04-11 17:47:52,365 offlineLogger INFO offline_sku_in_odoo.py 92 由于黑名单不能下架的sku数量: 0
2018-04-11 17:47:52,366 offlineLogger INFO offline_sku_in_odoo.py 94 由于以上全部原因不能下架的sku总数: 17473
2018-04-11 17:47:53,180 offlineLogger INFO offline_sku_in_odoo.py 487 过滤后的上架sku数量为: 24636
2018-04-11 17:47:53,181 offlineLogger INFO offline_sku_in_odoo.py 493 需要获取2次由于供应商问题需要下架的sku数量
2018-04-11 17:47:53,502 offlineLogger INFO offline_sku_in_odoo.py 514 第0次获取由于供应商问题需要下架的sku数量: 0
2018-04-11 17:47:53,577 offlineLogger INFO offline_sku_in_odoo.py 514 第1次获取由于供应商问题需要下架的sku数量: 0
2018-04-11 17:47:53,578 offlineLogger INFO offline_sku_in_odoo.py 97 由于供应商问题需要下架的sku数量为: 0
2018-04-11 17:47:53,690 offlineLogger INFO offline_sku_in_odoo.py 467 所有线上商品的cluster_id数量为: 7390
2018-04-11 17:47:54,195 offlineLogger INFO offline_sku_in_odoo.py 469 需要merged的cluster_id数量为: 25
2018-04-11 17:47:54,240 offlineLogger INFO offline_sku_in_odoo.py 473 由于merge需要下架的cluster_id数量为: 10
2018-04-11 17:47:57,792 offlineLogger INFO offline_sku_in_odoo.py 480 由于merge需要下架的sku数量为: 24
2018-04-11 17:47:57,792 offlineLogger INFO offline_sku_in_odoo.py 99 由于合并问题需要下架的sku数量为: 24
2018-04-11 17:47:57,793 offlineLogger INFO offline_sku_in_odoo.py 105 需要下架的sku总数: 24
2018-04-11 17:54:20,674 offlineLogger INFO offline_sku_in_odoo.py 561 ============start processing at 2018-04-11 17:54:20============================
2018-04-11 17:54:23,121 offlineLogger INFO offline_sku_in_odoo.py 333 xy_idoo长度: 1090, yh_idoo长度: 1303, xs_idoo长度: 1718
2018-04-11 17:54:23,122 offlineLogger INFO offline_sku_in_odoo.py 342 还有库存的sku数量: 63
2018-04-11 17:54:23,122 offlineLogger INFO offline_sku_in_odoo.py 86 由于供应商还有库存不能下架的sku数量: 63
2018-04-11 17:54:25,796 offlineLogger INFO offline_sku_in_odoo.py 88 由于自己还有库存不能下架的sku数量: 15050
2018-04-11 17:54:25,984 offlineLogger INFO offline_sku_in_odoo.py 90 由于fast_on_shelf不能下架的sku数量: 2360
2018-04-11 17:54:26,004 offlineLogger INFO offline_sku_in_odoo.py 92 由于黑名单不能下架的sku数量: 0
2018-04-11 17:54:26,005 offlineLogger INFO offline_sku_in_odoo.py 94 由于以上全部原因不能下架的sku总数: 17473
2018-04-11 17:54:27,134 offlineLogger INFO offline_sku_in_odoo.py 487 过滤后的上架sku数量为: 24636
2018-04-11 17:54:27,135 offlineLogger INFO offline_sku_in_odoo.py 493 需要获取2次由于供应商问题需要下架的sku数量
2018-04-11 17:54:27,451 offlineLogger INFO offline_sku_in_odoo.py 514 第0次获取由于供应商问题需要下架的sku数量: 0
2018-04-11 17:54:27,536 offlineLogger INFO offline_sku_in_odoo.py 514 第1次获取由于供应商问题需要下架的sku数量: 0
2018-04-11 17:54:27,536 offlineLogger INFO offline_sku_in_odoo.py 97 由于供应商问题需要下架的sku数量为: 0
2018-04-11 17:54:27,640 offlineLogger INFO offline_sku_in_odoo.py 467 所有线上商品的cluster_id数量为: 7390
2018-04-11 17:54:28,167 offlineLogger INFO offline_sku_in_odoo.py 469 需要merged的cluster_id数量为: 25
2018-04-11 17:54:28,239 offlineLogger INFO offline_sku_in_odoo.py 473 由于merge需要下架的cluster_id数量为: 10
2018-04-11 17:54:31,848 offlineLogger INFO offline_sku_in_odoo.py 480 由于merge需要下架的sku数量为: 24
2018-04-11 17:54:31,849 offlineLogger INFO offline_sku_in_odoo.py 99 由于合并问题需要下架的sku数量为: 24
2018-04-11 17:54:31,849 offlineLogger INFO offline_sku_in_odoo.py 105 需要下架的sku总数: 24
2018-04-11 19:23:36,977 offlineLogger INFO offline_sku_in_odoo.py 570 ============start processing at 2018-04-11 19:23:36============================
2018-04-11 19:23:39,892 offlineLogger INFO offline_sku_in_odoo.py 342 xy_idoo长度: 1094, yh_idoo长度: 1303, xs_idoo长度: 1721
2018-04-11 19:23:39,894 offlineLogger INFO offline_sku_in_odoo.py 351 还有库存的sku数量: 63
2018-04-11 19:23:39,894 offlineLogger INFO offline_sku_in_odoo.py 86 由于供应商还有库存不能下架的sku数量: 63
2018-04-11 19:31:30,629 offlineLogger INFO offline_sku_in_odoo.py 570 ============start processing at 2018-04-11 19:31:30============================
2018-04-11 19:31:32,645 offlineLogger INFO offline_sku_in_odoo.py 342 xy_idoo长度: 1095, yh_idoo长度: 1303, xs_idoo长度: 1721
2018-04-11 19:31:32,646 offlineLogger INFO offline_sku_in_odoo.py 351 还有库存的sku数量: 63
2018-04-11 19:31:32,646 offlineLogger INFO offline_sku_in_odoo.py 86 由于供应商还有库存不能下架的sku数量: 63
2018-04-11 19:31:49,829 offlineLogger INFO offline_sku_in_odoo.py 88 由于自己还有库存不能下架的sku数量: 15050
2018-04-11 19:31:50,007 offlineLogger INFO offline_sku_in_odoo.py 90 由于fast_on_shelf不能下架的sku数量: 2360
2018-04-11 19:31:50,022 offlineLogger INFO offline_sku_in_odoo.py 92 由于黑名单不能下架的sku数量: 0
2018-04-11 19:31:50,023 offlineLogger INFO offline_sku_in_odoo.py 94 由于以上全部原因不能下架的sku总数: 17473
2018-04-11 19:31:51,325 offlineLogger INFO offline_sku_in_odoo.py 496 过滤后的上架sku数量为: 24637
2018-04-11 19:31:51,326 offlineLogger INFO offline_sku_in_odoo.py 502 需要获取2次由于供应商问题需要下架的sku数量
2018-04-11 19:31:51,661 offlineLogger INFO offline_sku_in_odoo.py 523 第0次获取由于供应商问题需要下架的sku数量: 0
2018-04-11 19:31:51,724 offlineLogger INFO offline_sku_in_odoo.py 523 第1次获取由于供应商问题需要下架的sku数量: 0
2018-04-11 19:31:51,725 offlineLogger INFO offline_sku_in_odoo.py 97 由于供应商问题需要下架的sku数量为: 0
2018-04-11 19:31:51,824 offlineLogger INFO offline_sku_in_odoo.py 476 所有线上商品的cluster_id数量为: 7391
2018-04-11 19:31:52,271 offlineLogger INFO offline_sku_in_odoo.py 478 需要merged的cluster_id数量为: 25
2018-04-11 19:31:52,349 offlineLogger INFO offline_sku_in_odoo.py 482 由于merge需要下架的cluster_id数量为: 10
2018-04-11 19:31:55,858 offlineLogger INFO offline_sku_in_odoo.py 489 由于merge需要下架的sku数量为: 23
2018-04-11 19:31:55,867 offlineLogger INFO offline_sku_in_odoo.py 99 由于合并问题需要下架的sku数量为: 23
2018-04-11 19:31:55,868 offlineLogger INFO offline_sku_in_odoo.py 105 需要下架的sku总数: 23
2018-04-11 19:31:55,868 offlineLogger INFO offline_sku_in_odoo.py 574 ============end processing at 2018-04-11 19:31:55============================
2018-04-11 19:31:55,868 offlineLogger INFO offline_sku_in_odoo.py 576 花费时间: 25.239806413650513 秒
2018-04-11 19:34:06,386 offlineLogger INFO offline_sku_in_odoo.py 570 ============start processing at 2018-04-11 19:34:06============================
2018-04-11 19:34:07,579 offlineLogger INFO offline_sku_in_odoo.py 342 xy_idoo长度: 1095, yh_idoo长度: 1303, xs_idoo长度: 1719
2018-04-11 19:34:07,580 offlineLogger INFO offline_sku_in_odoo.py 351 还有库存的sku数量: 63
2018-04-11 19:34:07,580 offlineLogger INFO offline_sku_in_odoo.py 86 由于供应商还有库存不能下架的sku数量: 63
2018-04-11 19:34:10,502 offlineLogger INFO offline_sku_in_odoo.py 88 由于自己还有库存不能下架的sku数量: 15050
2018-04-11 19:34:12,352 offlineLogger INFO offline_sku_in_odoo.py 90 由于fast_on_shelf不能下架的sku数量: 6723
2018-04-11 19:34:12,360 offlineLogger INFO offline_sku_in_odoo.py 92 由于黑名单不能下架的sku数量: 0
2018-04-11 19:34:12,361 offlineLogger INFO offline_sku_in_odoo.py 94 由于以上全部原因不能下架的sku总数: 21836
2018-04-11 19:34:59,927 offlineLogger INFO offline_sku_in_odoo.py 496 过滤后的上架sku数量为: 1324273
2018-04-11 19:34:59,927 offlineLogger INFO offline_sku_in_odoo.py 502 需要获取67次由于供应商问题需要下架的sku数量
2018-04-11 19:35:20,465 offlineLogger INFO offline_sku_in_odoo.py 523 第0次获取由于供应商问题需要下架的sku数量: 1336
2018-04-11 19:35:34,723 offlineLogger INFO offline_sku_in_odoo.py 523 第1次获取由于供应商问题需要下架的sku数量: 1630
2018-04-11 19:35:46,598 offlineLogger INFO offline_sku_in_odoo.py 523 第2次获取由于供应商问题需要下架的sku数量: 1307
2018-04-11 19:35:57,950 offlineLogger INFO offline_sku_in_odoo.py 523 第3次获取由于供应商问题需要下架的sku数量: 1019
2018-04-11 19:36:08,913 offlineLogger INFO offline_sku_in_odoo.py 523 第4次获取由于供应商问题需要下架的sku数量: 928
2018-04-11 19:36:25,797 offlineLogger INFO offline_sku_in_odoo.py 523 第5次获取由于供应商问题需要下架的sku数量: 657
2018-04-11 19:36:39,934 offlineLogger INFO offline_sku_in_odoo.py 523 第6次获取由于供应商问题需要下架的sku数量: 739
2018-04-11 19:36:54,700 offlineLogger INFO offline_sku_in_odoo.py 523 第7次获取由于供应商问题需要下架的sku数量: 710
2018-04-11 19:37:07,073 offlineLogger INFO offline_sku_in_odoo.py 523 第8次获取由于供应商问题需要下架的sku数量: 825
2018-04-11 19:37:17,004 offlineLogger INFO offline_sku_in_odoo.py 523 第9次获取由于供应商问题需要下架的sku数量: 826
2018-04-11 19:37:24,887 offlineLogger INFO offline_sku_in_odoo.py 523 第10次获取由于供应商问题需要下架的sku数量: 824
2018-04-11 19:37:29,192 offlineLogger INFO offline_sku_in_odoo.py 523 第11次获取由于供应商问题需要下架的sku数量: 768
2018-04-11 19:37:34,102 offlineLogger INFO offline_sku_in_odoo.py 523 第12次获取由于供应商问题需要下架的sku数量: 735
2018-04-11 19:37:42,667 offlineLogger INFO offline_sku_in_odoo.py 523 第13次获取由于供应商问题需要下架的sku数量: 637
2018-04-11 19:37:58,576 offlineLogger INFO offline_sku_in_odoo.py 523 第14次获取由于供应商问题需要下架的sku数量: 591
2018-04-11 19:38:13,536 offlineLogger INFO offline_sku_in_odoo.py 523 第15次获取由于供应商问题需要下架的sku数量: 1326
2018-04-11 19:38:25,110 offlineLogger INFO offline_sku_in_odoo.py 523 第16次获取由于供应商问题需要下架的sku数量: 1351
2018-04-11 19:38:31,670 offlineLogger INFO offline_sku_in_odoo.py 523 第17次获取由于供应商问题需要下架的sku数量: 1495
2018-04-11 19:38:38,825 offlineLogger INFO offline_sku_in_odoo.py 523 第18次获取由于供应商问题需要下架的sku数量: 1122
2018-04-11 19:38:46,713 offlineLogger INFO offline_sku_in_odoo.py 523 第19次获取由于供应商问题需要下架的sku数量: 1003
2018-04-11 19:38:50,910 offlineLogger INFO offline_sku_in_odoo.py 523 第20次获取由于供应商问题需要下架的sku数量: 813
2018-04-11 19:39:04,467 offlineLogger INFO offline_sku_in_odoo.py 523 第21次获取由于供应商问题需要下架的sku数量: 741
2018-04-11 19:39:16,350 offlineLogger INFO offline_sku_in_odoo.py 523 第22次获取由于供应商问题需要下架的sku数量: 660
2018-04-11 19:39:33,094 offlineLogger INFO offline_sku_in_odoo.py 523 第23次获取由于供应商问题需要下架的sku数量: 906
2018-04-11 19:39:44,771 offlineLogger INFO offline_sku_in_odoo.py 523 第24次获取由于供应商问题需要下架的sku数量: 636
2018-04-11 19:39:55,317 offlineLogger INFO offline_sku_in_odoo.py 523 第25次获取由于供应商问题需要下架的sku数量: 941
2018-04-11 19:40:05,143 offlineLogger INFO offline_sku_in_odoo.py 523 第26次获取由于供应商问题需要下架的sku数量: 758
2018-04-11 19:40:11,186 offlineLogger INFO offline_sku_in_odoo.py 523 第27次获取由于供应商问题需要下架的sku数量: 607
2018-04-11 19:40:15,076 offlineLogger INFO offline_sku_in_odoo.py 523 第28次获取由于供应商问题需要下架的sku数量: 690
2018-04-11 19:40:20,269 offlineLogger INFO offline_sku_in_odoo.py 523 第29次获取由于供应商问题需要下架的sku数量: 713
2018-04-11 19:40:31,125 offlineLogger INFO offline_sku_in_odoo.py 523 第30次获取由于供应商问题需要下架的sku数量: 577
2018-04-11 19:40:46,818 offlineLogger INFO offline_sku_in_odoo.py 523 第31次获取由于供应商问题需要下架的sku数量: 808
2018-04-11 19:41:03,169 offlineLogger INFO offline_sku_in_odoo.py 523 第32次获取由于供应商问题需要下架的sku数量: 1217
2018-04-11 19:41:11,609 offlineLogger INFO offline_sku_in_odoo.py 523 第33次获取由于供应商问题需要下架的sku数量: 1241
2018-04-11 19:41:17,869 offlineLogger INFO offline_sku_in_odoo.py 523 第34次获取由于供应商问题需要下架的sku数量: 1634
2018-04-11 19:41:23,692 offlineLogger INFO offline_sku_in_odoo.py 523 第35次获取由于供应商问题需要下架的sku数量: 1110
2018-04-11 19:41:32,198 offlineLogger INFO offline_sku_in_odoo.py 523 第36次获取由于供应商问题需要下架的sku数量: 931
2018-04-11 19:41:38,533 offlineLogger INFO offline_sku_in_odoo.py 523 第37次获取由于供应商问题需要下架的sku数量: 679
2018-04-11 19:41:51,032 offlineLogger INFO offline_sku_in_odoo.py 523 第38次获取由于供应商问题需要下架的sku数量: 564
2018-04-11 19:42:08,230 offlineLogger INFO offline_sku_in_odoo.py 523 第39次获取由于供应商问题需要下架的sku数量: 761
2018-04-11 19:42:37,996 offlineLogger INFO offline_sku_in_odoo.py 523 第40次获取由于供应商问题需要下架的sku数量: 840
2018-04-11 19:42:52,670 offlineLogger INFO offline_sku_in_odoo.py 523 第41次获取由于供应商问题需要下架的sku数量: 771
2018-04-11 19:43:04,600 offlineLogger INFO offline_sku_in_odoo.py 523 第42次获取由于供应商问题需要下架的sku数量: 875
2018-04-11 19:43:13,867 offlineLogger INFO offline_sku_in_odoo.py 523 第43次获取由于供应商问题需要下架的sku数量: 592
2018-04-11 19:43:24,993 offlineLogger INFO offline_sku_in_odoo.py 523 第44次获取由于供应商问题需要下架的sku数量: 644
2018-04-11 19:43:35,686 offlineLogger INFO offline_sku_in_odoo.py 523 第45次获取由于供应商问题需要下架的sku数量: 862
2018-04-11 19:43:43,563 offlineLogger INFO offline_sku_in_odoo.py 523 第46次获取由于供应商问题需要下架的sku数量: 628
2018-04-11 19:43:58,412 offlineLogger INFO offline_sku_in_odoo.py 523 第47次获取由于供应商问题需要下架的sku数量: 565
2018-04-11 19:44:13,993 offlineLogger INFO offline_sku_in_odoo.py 523 第48次获取由于供应商问题需要下架的sku数量: 1278
2018-04-11 19:44:32,416 offlineLogger INFO offline_sku_in_odoo.py 523 第49次获取由于供应商问题需要下架的sku数量: 1113
2018-04-11 19:44:44,707 offlineLogger INFO offline_sku_in_odoo.py 523 第50次获取由于供应商问题需要下架的sku数量: 1220
2018-04-11 19:44:56,166 offlineLogger INFO offline_sku_in_odoo.py 523 第51次获取由于供应商问题需要下架的sku数量: 1655
2018-04-11 19:45:05,035 offlineLogger INFO offline_sku_in_odoo.py 523 第52次获取由于供应商问题需要下架的sku数量: 955
2018-04-11 19:45:10,093 offlineLogger INFO offline_sku_in_odoo.py 523 第53次获取由于供应商问题需要下架的sku数量: 720
2018-04-11 19:45:22,284 offlineLogger INFO offline_sku_in_odoo.py 523 第54次获取由于供应商问题需要下架的sku数量: 922
2018-04-11 19:45:34,975 offlineLogger INFO offline_sku_in_odoo.py 523 第55次获取由于供应商问题需要下架的sku数量: 542
2018-04-11 19:46:13,888 offlineLogger INFO offline_sku_in_odoo.py 523 第56次获取由于供应商问题需要下架的sku数量: 578
2018-04-11 19:46:45,023 offlineLogger INFO offline_sku_in_odoo.py 523 第57次获取由于供应商问题需要下架的sku数量: 1002
2018-04-11 19:47:12,830 offlineLogger INFO offline_sku_in_odoo.py 523 第58次获取由于供应商问题需要下架的sku数量: 856
2018-04-11 19:47:37,635 offlineLogger INFO offline_sku_in_odoo.py 523 第59次获取由于供应商问题需要下架的sku数量: 687
2018-04-11 19:47:54,448 offlineLogger INFO offline_sku_in_odoo.py 523 第60次获取由于供应商问题需要下架的sku数量: 771
2018-04-11 19:48:07,145 offlineLogger INFO offline_sku_in_odoo.py 523 第61次获取由于供应商问题需要下架的sku数量: 701
2018-04-11 19:48:20,630 offlineLogger INFO offline_sku_in_odoo.py 523 第62次获取由于供应商问题需要下架的sku数量: 917
2018-04-11 19:48:36,429 offlineLogger INFO offline_sku_in_odoo.py 523 第63次获取由于供应商问题需要下架的sku数量: 556
2018-04-11 19:48:56,619 offlineLogger INFO offline_sku_in_odoo.py 523 第64次获取由于供应商问题需要下架的sku数量: 780
2018-04-11 19:49:23,541 offlineLogger INFO offline_sku_in_odoo.py 523 第65次获取由于供应商问题需要下架的sku数量: 1115
2018-04-11 19:49:29,677 offlineLogger INFO offline_sku_in_odoo.py 523 第66次获取由于供应商问题需要下架的sku数量: 114
2018-04-11 19:49:29,699 offlineLogger INFO offline_sku_in_odoo.py 97 由于供应商问题需要下架的sku数量为: 59075
2018-04-11 19:49:31,824 offlineLogger INFO offline_sku_in_odoo.py 476 所有线上商品的cluster_id数量为: 271613
2018-04-11 19:50:05,458 offlineLogger INFO offline_sku_in_odoo.py 478 需要merged的cluster_id数量为: 16128
2018-04-11 19:51:06,907 offlineLogger INFO offline_sku_in_odoo.py 482 由于merge需要下架的cluster_id数量为: 2780
2018-04-11 19:51:10,142 offlineLogger INFO offline_sku_in_odoo.py 489 由于merge需要下架的sku数量为: 18778
2018-04-11 19:51:10,146 offlineLogger INFO offline_sku_in_odoo.py 99 由于合并问题需要下架的sku数量为: 18778
2018-04-11 19:51:10,149 offlineLogger INFO offline_sku_in_odoo.py 105 需要下架的sku总数: 77853
2018-04-11 19:51:10,152 offlineLogger INFO offline_sku_in_odoo.py 574 ============end processing at 2018-04-11 19:51:10============================
2018-04-11 19:51:10,152 offlineLogger INFO offline_sku_in_odoo.py 576 花费时间: 1023.7663280963898 秒
